{
    "afl": {
        "etag": "k35RY4kZDaUcCpihtSIlWlJPLNA",
        "eventId": null,
        "kind": "youtube#channelListResponse",
        "nextPageToken": null,
        "prevPageToken": null,
        "visitorId": null,
        "pageInfo": {
            "resultsPerPage": 5,
            "totalResults": 1
        },
        "items": [
            {
                "etag": "gYDnxYHpKUpIpTxKW5JcVG5Y7Z4",
                "id": "UCxAeHdLDAatFV_vt95MSO-g",
                "kind": "youtube#channel",
                "snippet": {
                    "country": "AU",
                    "customUrl": "@afl",
                    "defaultLanguage": null,
                    "description": "The official YouTube channel of the Australian Football League!",
                    "publishedAt": "2010-07-01T06:27:53Z",
                    "title": "AFL",
                    "thumbnails": {
                        "default": {
                            "height": 88,
                            "url": "https://yt3.ggpht.com/ytc/APkrFKZUWvHR0YpFYDkn7UWThGs94u9Gats8Zf8UsdduF2g=s88-c-k-c0x00ffffff-no-rj",
                            "width": 88
                        },
                        "medium": {
                            "height": 240,
                            "url": "https://yt3.ggpht.com/ytc/APkrFKZUWvHR0YpFYDkn7UWThGs94u9Gats8Zf8UsdduF2g=s240-c-k-c0x00ffffff-no-rj",
                            "width": 240
                        },
                        "high": {
                            "height": 800,
                            "url": "https://yt3.ggpht.com/ytc/APkrFKZUWvHR0YpFYDkn7UWThGs94u9Gats8Zf8UsdduF2g=s800-c-k-c0x00ffffff-no-rj",
                            "width": 800
                        }
                    },
                    "localized": {
                        "description": "The official YouTube channel of the Australian Football League!",
                        "title": "AFL"
                    }
                },
                "contentDetails": {
                    "relatedPlaylists": {
                        "favorites": null,
                        "likes": "",
                        "uploads": "UUxAeHdLDAatFV_vt95MSO-g",
                        "watchHistory": null,
                        "watchLater": null
                    }
                },
                "statistics": {
                    "commentCount": null,
                    "hiddenSubscriberCount": false,
                    "subscriberCount": "279000",
                    "videoCount": "12781",
                    "viewCount": "203983328"
                }
            }
        ]
    },
    "aflw": {
        "etag": "B4s1MYTLL07-hqgqx1Ot3YE718E",
        "eventId": null,
        "kind": "youtube#channelListResponse",
        "nextPageToken": null,
        "prevPageToken": null,
        "visitorId": null,
        "pageInfo": {
            "resultsPerPage": 5,
            "totalResults": 1
        },
        "items": [
            {
                "etag": "43c2VzCCFftbg3yaHBuieYr5JtA",
                "id": "UCui2LJ0N-Zi7Uw_sHyE5kgQ",
                "kind": "youtube#channel",
                "snippet": {
                    "country": "AU",
                    "customUrl": "@aflwomens",
                    "defaultLanguage": null,
                    "description": "Welcome to the official AFL Women's YouTube Channel.\n\nSubscribe to us for all the latest highlights from NAB AFLW Season Seven. ",
                    "publishedAt": "2017-01-24T03:20:28Z",
                    "title": "AFL Women's",
                    "thumbnails": {
                        "default": {
                            "height": 88,
                            "url": "https://yt3.ggpht.com/0Y6E5TJxaf2RZg0tGlc-bKdYrU-ONqsI9QzgoiURoeyXz_PXnvF0_J6uBN-aXXWh-JwZbHyL8Fw=s88-c-k-c0x00ffffff-no-rj",
                            "width": 88
                        },
                        "medium": {
                            "height": 240,
                            "url": "https://yt3.ggpht.com/0Y6E5TJxaf2RZg0tGlc-bKdYrU-ONqsI9QzgoiURoeyXz_PXnvF0_J6uBN-aXXWh-JwZbHyL8Fw=s240-c-k-c0x00ffffff-no-rj",
                            "width": 240
                        },
                        "high": {
                            "height": 800,
                            "url": "https://yt3.ggpht.com/0Y6E5TJxaf2RZg0tGlc-bKdYrU-ONqsI9QzgoiURoeyXz_PXnvF0_J6uBN-aXXWh-JwZbHyL8Fw=s800-c-k-c0x00ffffff-no-rj",
                            "width": 800
                        }
                    },
                    "localized": {
                        "description": "Welcome to the official AFL Women's YouTube Channel.\n\nSubscribe to us for all the latest highlights from NAB AFLW Season Seven. ",
                        "title": "AFL Women's"
                    }
                },
                "contentDetails": {
                    "relatedPlaylists": {
                        "favorites": null,
                        "likes": "",
                        "uploads": "UUui2LJ0N-Zi7Uw_sHyE5kgQ",
                        "watchHistory": null,
                        "watchLater": null
                    }
                },
                "statistics": {
                    "commentCount": null,
                    "hiddenSubscriberCount": false,
                    "subscriberCount": "6880",
                    "videoCount": "935",
                    "viewCount": "1235099"
                }
            }
        ]
    },
    "keepupfootball": {
        "etag": "fSQFfCNZ_o6X9HRgeeynb3y3K88",
        "eventId": null,
        "kind": "youtube#channelListResponse",
        "nextPageToken": null,
        "prevPageToken": null,
        "visitorId": null,
        "pageInfo": {
            "resultsPerPage": 5,
            "totalResults": 1
        },
        "items": [
            {
                "etag": "JChLDJFULmxQjp9pJc586tVzolA",
                "id": "UCzRogd_oK3bzKvAW-4aLuPQ",
                "kind": "youtube#channel",
                "snippet": {
                    "country": "AU",
                    "customUrl": "@keepupfootball",
                    "defaultLanguage": null,
                    "description": "Official YouTube channel for KEEPUP, your official home for the A-Leagues and home of football for Australians. Get all the latest news, videos, highlights, fixtures, results and more from your favourite A-Leagues club.\n\nDownload the KEEPUP app:\nGoogle Store: https://bit.ly/3CG09ko\nApple Store:https://apple.co/3DAFTkP\n\n\n",
                    "publishedAt": "2021-10-21T23:20:03.190945Z",
                    "title": "KEEPUP",
                    "thumbnails": {
                        "default": {
                            "height": 88,
                            "url": "https://yt3.ggpht.com/cJt58yDG6wbhO53gmq26L7mreI-nSQy9xPO1s-1pKc7P4RmBy1x_Pki0jm_v383QqJYALoV0DtI=s88-c-k-c0x00ffffff-no-rj",
                            "width": 88
                        },
                        "medium": {
                            "height": 240,
                            "url": "https://yt3.ggpht.com/cJt58yDG6wbhO53gmq26L7mreI-nSQy9xPO1s-1pKc7P4RmBy1x_Pki0jm_v383QqJYALoV0DtI=s240-c-k-c0x00ffffff-no-rj",
                            "width": 240
                        },
                        "high": {
                            "height": 800,
                            "url": "https://yt3.ggpht.com/cJt58yDG6wbhO53gmq26L7mreI-nSQy9xPO1s-1pKc7P4RmBy1x_Pki0jm_v383QqJYALoV0DtI=s800-c-k-c0x00ffffff-no-rj",
                            "width": 800
                        }
                    },
                    "localized": {
                        "description": "Official YouTube channel for KEEPUP, your official home for the A-Leagues and home of football for Australians. Get all the latest news, videos, highlights, fixtures, results and more from your favourite A-Leagues club.\n\nDownload the KEEPUP app:\nGoogle Store: https://bit.ly/3CG09ko\nApple Store:https://apple.co/3DAFTkP\n\n\n",
                        "title": "KEEPUP"
                    }
                },
                "contentDetails": {
                    "relatedPlaylists": {
                        "favorites": null,
                        "likes": "",
                        "uploads": "UUzRogd_oK3bzKvAW-4aLuPQ",
                        "watchHistory": null,
                        "watchLater": null
                    }
                },
                "statistics": {
                    "commentCount": null,
                    "hiddenSubscriberCount": false,
                    "subscriberCount": "41000",
                    "videoCount": "3452",
                    "viewCount": "9813479"
                }
            }
        ]
    },
    "cricketcomau": {
        "etag": "3uN9nj7nyPF0AoCyJJ6Mi2iFry8",
        "eventId": null,
        "kind": "youtube#channelListResponse",
        "nextPageToken": null,
        "prevPageToken": null,
        "visitorId": null,
        "pageInfo": {
            "resultsPerPage": 5,
            "totalResults": 1
        },
        "items": [
            {
                "etag": "e5bxOtsfY-MacK7JZZJm4PMs4HY",
                "id": "UCkBY0aHJP9BwjZLDYxAQrKg",
                "kind": "youtube#channel",
                "snippet": {
                    "country": "AU",
                    "customUrl": "@cricketcomau",
                    "defaultLanguage": null,
                    "description": "The official YouTube channel of cricket.com.au where you can find the latest interviews, features and highlights packages. \n\nFor more content, visit our other social media pages below.",
                    "publishedAt": "2008-12-05T00:51:17Z",
                    "title": "cricket.com.au",
                    "thumbnails": {
                        "default": {
                            "height": 88,
                            "url": "https://yt3.ggpht.com/nCtago6abNXf7lnLOl7et1K7C_7ymOAuoVYS_U0Qy0bd3YeNrK--5qov5x1HlNFWx6H2gmzcKJM=s88-c-k-c0x00ffffff-no-rj",
                            "width": 88
                        },
                        "medium": {
                            "height": 240,
                            "url": "https://yt3.ggpht.com/nCtago6abNXf7lnLOl7et1K7C_7ymOAuoVYS_U0Qy0bd3YeNrK--5qov5x1HlNFWx6H2gmzcKJM=s240-c-k-c0x00ffffff-no-rj",
                            "width": 240
                        },
                        "high": {
                            "height": 800,
                            "url": "https://yt3.ggpht.com/nCtago6abNXf7lnLOl7et1K7C_7ymOAuoVYS_U0Qy0bd3YeNrK--5qov5x1HlNFWx6H2gmzcKJM=s800-c-k-c0x00ffffff-no-rj",
                            "width": 800
                        }
                    },
                    "localized": {
                        "description": "The official YouTube channel of cricket.com.au where you can find the latest interviews, features and highlights packages. \n\nFor more content, visit our other social media pages below.",
                        "title": "cricket.com.au"
                    }
                },
                "contentDetails": {
                    "relatedPlaylists": {
                        "favorites": null,
                        "likes": "",
                        "uploads": "UUkBY0aHJP9BwjZLDYxAQrKg",
                        "watchHistory": null,
                        "watchLater": null
                    }
                },
                "statistics": {
                    "commentCount": null,
                    "hiddenSubscriberCount": false,
                    "subscriberCount": "8940000",
                    "videoCount": "12019",
                    "viewCount": "4696962021"
                }
            }
        ]
    },
    "nrl": {
        "etag": "79zBDoaL21vvJTLltD9qDRM3bpU",
        "eventId": null,
        "kind": "youtube#channelListResponse",
        "nextPageToken": null,
        "prevPageToken": null,
        "visitorId": null,
        "pageInfo": {
            "resultsPerPage": 5,
            "totalResults": 1
        },
        "items": [
            {
                "etag": "5NZuLhYUpWAJ-_k6IJMThU_Xh0w",
                "id": "UC33-OkQ6VCYk8xtml8Pk4-g",
                "kind": "youtube#channel",
                "snippet": {
                    "country": "AU",
                    "customUrl": "@nrl",
                    "defaultLanguage": null,
                    "description": "The Official YouTube Channel of the National Rugby League.  \n\nEvery week will feature exclusive interviews, highlights, and the greatest moments that the NRL has ever produced!\n\nSubscribe and hit that notification bell to know when new videos are available here.\n\nFollow us on social @nrl and visit NRL.com for all the latest news and updates!",
                    "publishedAt": "2006-05-08T04:46:04Z",
                    "title": "NRL - National Rugby League",
                    "thumbnails": {
                        "default": {
                            "height": 88,
                            "url": "https://yt3.ggpht.com/Pui0xFjDp_F-x0UK5Rkfh1tGkwZLy7fkU4Pr44Zht3DJcMwWXLnxoVIGSRS5Pr7SVxgES0-ouA=s88-c-k-c0x00ffffff-no-rj",
                            "width": 88
                        },
                        "medium": {
                            "height": 240,
                            "url": "https://yt3.ggpht.com/Pui0xFjDp_F-x0UK5Rkfh1tGkwZLy7fkU4Pr44Zht3DJcMwWXLnxoVIGSRS5Pr7SVxgES0-ouA=s240-c-k-c0x00ffffff-no-rj",
                            "width": 240
                        },
                        "high": {
                            "height": 800,
                            "url": "https://yt3.ggpht.com/Pui0xFjDp_F-x0UK5Rkfh1tGkwZLy7fkU4Pr44Zht3DJcMwWXLnxoVIGSRS5Pr7SVxgES0-ouA=s800-c-k-c0x00ffffff-no-rj",
                            "width": 800
                        }
                    },
                    "localized": {
                        "description": "The Official YouTube Channel of the National Rugby League.  \n\nEvery week will feature exclusive interviews, highlights, and the greatest moments that the NRL has ever produced!\n\nSubscribe and hit that notification bell to know when new videos are available here.\n\nFollow us on social @nrl and visit NRL.com for all the latest news and updates!",
                        "title": "NRL - National Rugby League"
                    }
                },
                "contentDetails": {
                    "relatedPlaylists": {
                        "favorites": null,
                        "likes": "",
                        "uploads": "UU33-OkQ6VCYk8xtml8Pk4-g",
                        "watchHistory": null,
                        "watchLater": null
                    }
                },
                "statistics": {
                    "commentCount": null,
                    "hiddenSubscriberCount": false,
                    "subscriberCount": "322000",
                    "videoCount": "6908",
                    "viewCount": "241514746"
                }
            }
        ]
    },
    "nrlw": {
        "etag": "I1BNvFzMIr57Mqsmb0D347LNXFc",
        "eventId": null,
        "kind": "youtube#channelListResponse",
        "nextPageToken": null,
        "prevPageToken": null,
        "visitorId": null,
        "pageInfo": {
            "resultsPerPage": 5,
            "totalResults": 1
        },
        "items": [
            {
                "etag": "HbTdbrl96SS3Um1IFW26_ttB1LE",
                "id": "UCME0EifJ3Xm3mGmLdBz1Kyw",
                "kind": "youtube#channel",
                "snippet": {
                    "country": "AU",
                    "customUrl": "@nrlw",
                    "defaultLanguage": null,
                    "description": "The official home for the Women's Rugby League on YouTube.\n\nThe NRLW is home to some of the world's most elite, powerful and passionate athletes. Their peak physical condition is what makes the game so damn unmissable. ",
                    "publishedAt": "2022-08-08T05:31:27.582186Z",
                    "title": "NRLW - National Rugby League Women's",
                    "thumbnails": {
                        "default": {
                            "height": 88,
                            "url": "https://yt3.ggpht.com/wZCuicYl_ABhmxEtAJemEjslCp931w89m8UYZizeJ9z9qBfTeEbm2rvVU2I5tnCd9NpWAOAG=s88-c-k-c0x00ffffff-no-rj",
                            "width": 88
                        },
                        "medium": {
                            "height": 240,
                            "url": "https://yt3.ggpht.com/wZCuicYl_ABhmxEtAJemEjslCp931w89m8UYZizeJ9z9qBfTeEbm2rvVU2I5tnCd9NpWAOAG=s240-c-k-c0x00ffffff-no-rj",
                            "width": 240
                        },
                        "high": {
                            "height": 800,
                            "url": "https://yt3.ggpht.com/wZCuicYl_ABhmxEtAJemEjslCp931w89m8UYZizeJ9z9qBfTeEbm2rvVU2I5tnCd9NpWAOAG=s800-c-k-c0x00ffffff-no-rj",
                            "width": 800
                        }
                    },
                    "localized": {
                        "description": "The official home for the Women's Rugby League on YouTube.\n\nThe NRLW is home to some of the world's most elite, powerful and passionate athletes. Their peak physical condition is what makes the game so damn unmissable. ",
                        "title": "NRLW - National Rugby League Women's"
                    }
                },
                "contentDetails": {
                    "relatedPlaylists": {
                        "favorites": null,
                        "likes": "",
                        "uploads": "UUME0EifJ3Xm3mGmLdBz1Kyw",
                        "watchHistory": null,
                        "watchLater": null
                    }
                },
                "statistics": {
                    "commentCount": null,
                    "hiddenSubscriberCount": false,
                    "subscriberCount": "7310",
                    "videoCount": "624",
                    "viewCount": "2251198"
                }
            }
        ]
    }
}