<svg xmlns="http://www.w3.org/2000/svg" width="95" height="190" viewBox="0 0 95 190">
  <path id="EnergyIcon" d="M89.365,21H73.5V2h-38V21H19.635A12.691,12.691,0,0,0,7,33.635V179.27A12.711,12.711,0,0,0,19.635,192H89.27A12.711,12.711,0,0,0,102,179.365V33.635A12.691,12.691,0,0,0,89.365,21ZM45,173V120.75H26L64,49.5v52.25H83Z" transform="translate(-7 -2)" fill="#1c806c"/>
</svg>
