<svg xmlns="http://www.w3.org/2000/svg" width="180" height="170.923" viewBox="0 0 180 170.923">
  <path id="MealDeliveryIcon" d="M53.2,99.216,79.839,72.575,13.754,6.585a37.727,37.727,0,0,0,0,53.282Zm63.825-17.039c14.4,6.684,34.643,1.977,49.611-12.991,17.98-17.98,21.463-43.774,7.625-57.612C160.515-2.17,134.721,1.219,116.647,19.2,101.679,34.167,96.972,54.407,103.656,68.81L11.777,160.688l13.273,13.273,64.861-64.673,64.767,64.767,13.273-13.273L103.185,96.016l13.838-13.838Z" transform="translate(-2.74 -3.133)" fill="#1c806c"/>
</svg>
