<svg xmlns="http://www.w3.org/2000/svg" width="220" height="220" viewBox="0 0 220 220">
  <path id="myGovIcon" d="M211,31V26a25,25,0,0,0-50,0v5a10.029,10.029,0,0,0-10,10V81a10.029,10.029,0,0,0,10,10h50a10.029,10.029,0,0,0,10-10V41A10.029,10.029,0,0,0,211,31Zm-8,0H169V26a17,17,0,0,1,34,0v5Zm-22.8,80a82.557,82.557,0,0,1,.8,10,79.572,79.572,0,0,1-21,53.9A19.84,19.84,0,0,0,141,161H131V131a10.029,10.029,0,0,0-10-10H61V101H81A10.029,10.029,0,0,0,91,91V71h20a20.059,20.059,0,0,0,20-20V25.6A100,100,0,1,0,201,121c0-3.4-.2-6.7-.5-10ZM91,200.3A79.884,79.884,0,0,1,21,121a81.179,81.179,0,0,1,2.1-17.9L71,151v10a20.059,20.059,0,0,0,20,20Z" transform="translate(-1 -1)" fill="#1c806c"/>
</svg>
