<svg xmlns="http://www.w3.org/2000/svg" width="200" height="180" viewBox="0 0 200 180">
  <path id="SharePortfolioIcon" d="M82,133V123H12.1L12,163a19.931,19.931,0,0,0,20,20H172a19.931,19.931,0,0,0,20-20V123H122v10ZM182,43H141.9V23l-20-20h-40l-20,20V43H22A20.059,20.059,0,0,0,2,63V93a19.931,19.931,0,0,0,20,20H82V93h40v20h60a20.059,20.059,0,0,0,20-20V63A20.059,20.059,0,0,0,182,43Zm-60,0H82V23h40Z" transform="translate(-2 -3)" fill="#1c806c"/>
</svg>
