﻿full_name,first_name,last_name,current_team,number,games,age,dob,height,weight,position_1,position_2,role
aaron francis,Aaron,Francis,SYD,10,69,26,10-Aug-97,192cm,93kg,DEF,NA,DEF
adam saad,Adam,Saad,CAR,42,182,29,23-Jul-94,178cm,79kg,DEF,NA,DEF
adam tomlinson,Adam,Tomlinson,MEL,20,178,30,10-Aug-93,194cm,95kg,DEF,NA,DEF
aidan corr,Aidan,Corr,NOR,4,145,29,17-May-94,195cm,96kg,DEF,NA,DEF
alex cincotta,Alex,Cincotta,CAR,39,19,27,17-Dec-96,187cm,86kg,DEF,NA,DEF
alex keath,Alex,Keath,WBD,42,104,32,20-Jan-92,198cm,93kg,DEF,NA,DEF
alex pearce,Alex,Pearce,FRE,25,113,28,9-Jun-95,201cm,98kg,DEF,NA,DEF
alex witherden,Alex,Witherden,WCE,23,106,25,10-Sep-98,188cm,85kg,DEF,NA,DEF
aliir aliir,Aliir,Aliir,POR,21,137,29,5-Sep-94,194cm,96kg,DEF,NA,DEF
andrew mcgrath,Andrew,McGrath,ESS,1,141,25,2-Jun-98,180cm,83kg,DEF,NA,DEF
angus hastie,Angus,Hastie,STK,24,2,18,19-Sep-05,190cm,74kg,DEF,NA,DEF
bailey dale,Bailey,Dale,WBD,31,137,27,22-Jul-96,188cm,85kg,DEF,NA,DEF
bailey macdonald,Bailey,Macdonald,HAW,42,2,19,4-Aug-04,182cm,74kg,DEF,NA,DEF
ben long,Ben,Long,GCS,22,95,26,21-Aug-97,186cm,81kg,DEF,NA,DEF
ben mckay,Ben,McKay,ESS,32,78,26,24-Dec-97,202cm,104kg,DEF,NA,DEF
ben paton,Ben,Paton,STK,33,67,25,19-Oct-98,187cm,82kg,DEF,NA,DEF
billy frampton,Billy,Frampton,COL,17,45,27,20-Nov-96,201cm,100kg,DEF,NA,DEF
blake howes,Blake,Howes,MEL,22,7,21,7-Apr-03,191cm,82kg,DEF,NA,DEF
bodhi uwland,Bodhi,Uwland,GCS,32,9,20,25-Jul-03,188cm,89kg,DEF,NA,DEF
brady hough,Brady,Hough,WCE,19,36,21,5-Mar-03,191cm,81kg,DEF,NA,DEF
brandon starcevich,Brandon,Starcevich,BRI,37,104,24,24-Jul-99,187cm,90kg,DEF,NA,DEF
brandon walker,Brandon,Walker,FRE,31,50,21,17-Oct-02,186cm,81kg,DEF,NA,DEF
brandon zerk-thatcher,Brandon,Zerk-Thatcher,POR,25,57,25,25-Aug-98,195cm,91kg,DEF,NA,DEF
brayden maynard,Brayden,Maynard,COL,4,193,27,20-Sep-96,189cm,93kg,DEF,NA,DEF
brennan cox,Brennan,Cox,FRE,36,103,25,13-Aug-98,195cm,97kg,DEF,NA,DEF
brodie kemp,Brodie,Kemp,CAR,17,28,22,1-May-01,192cm,89kg,DEF,NA,DEF
brodie smith,Brodie,Smith,ADE,33,253,32,14-Jan-92,189cm,88kg,DEF,NA,DEF
caleb graham,Caleb,Graham,GCS,46,37,23,12-Sep-00,194cm,97kg,DEF,NA,DEF
caleb marchbank,Caleb,Marchbank,CAR,22,61,27,7-Dec-96,193cm,92kg,DEF,NA,DEF
callum wilkie,Callum,Wilkie,STK,44,115,28,10-Mar-96,191cm,88kg,DEF,NA,DEF
carter michael,Carter,Michael,BRI,39,1,21,22-May-02,188cm,83kg,DEF,NA,DEF
changkuoth jiath,Changkuoth,Jiath,HAW,9,45,24,13-Jun-99,185cm,78kg,DEF,NA,DEF
charlie ballard,Charlie,Ballard,GCS,10,116,24,23-Jul-99,196cm,95kg,DEF,NA,DEF
charlie dean,Charlie,Dean,COL,43,2,22,19-Jun-01,195cm,93kg,DEF,NA,DEF
connor budarick,Connor,Budarick,GCS,35,31,23,6-Apr-01,175cm,75kg,DEF,NA,DEF
connor idun,Connor,Idun,GWS,39,75,23,29-Jul-00,193cm,92kg,DEF,NA,DEF
connor o'sullivan,Connor,O'Sullivan,GEE,14,1,18,19-May-05,198cm,92kg,DEF,NA,DEF
conor mckenna,Conor,McKenna,BRI,26,107,28,28-Mar-96,184cm,88kg,DEF,NA,DEF
corey wagner,Corey,Wagner,FRE,34,28,27,23-Mar-97,181cm,77kg,DEF,NA,DEF
dan houston,Dan,Houston,POR,5,152,26,12-May-97,186cm,88kg,DEF,NA,DEF
dane rampe,Dane,Rampe,SYD,24,234,33,2-Jun-90,187cm,89kg,DEF,NA,DEF
daniel rioli,Daniel,Rioli,RIC,17,167,27,16-Apr-97,179cm,78kg,DEF,NA,DEF
daniel turner,Daniel,Turner,MEL,42,4,22,28-Jan-02,194cm,87kg,DEF,NA,DEF
darcy macpherson,Darcy,Macpherson,GCS,44,97,26,29-Oct-97,175cm,76kg,DEF,NA,DEF
darcy moore,Darcy,Moore,COL,30,157,28,25-Jan-96,203cm,100kg,DEF,NA,DEF
darcy wilmot,Darcy,Wilmot,BRI,44,36,20,31-Dec-03,183cm,79kg,DEF,NA,DEF
darragh joyce,Darragh,Joyce,BRI,41,18,27,23-Apr-97,195cm,96kg,DEF,NA,DEF
dougal howard,Dougal,Howard,STK,20,120,28,25-Mar-96,199cm,94kg,DEF,NA,DEF
dylan grimes,Dylan,Grimes,RIC,2,233,32,16-Jul-91,194cm,92kg,DEF,NA,DEF
dylan williams,Dylan,Williams,POR,23,23,22,1-Jul-01,186cm,85kg,DEF,NA,DEF
dyson heppell,Dyson,Heppell,ESS,21,242,31,14-May-92,189cm,86kg,DEF,NA,DEF
ed richards,Ed,Richards,WBD,20,109,24,3-Jul-99,188cm,89kg,DEF,NA,DEF
emerson jeka,Emerson,Jeka,GEE,43,7,22,18-Sep-01,198cm,92kg,DEF,NA,DEF
esava ratugolea,Esava,Ratugolea,POR,27,81,25,24-Jul-98,197cm,108kg,DEF,NA,DEF
ethan hughes,Ethan,Hughes,FRE,15,107,29,7-Dec-94,188cm,87kg,DEF,NA,DEF
griffin logue,Griffin,Logue,NOR,19,79,26,13-Apr-98,193cm,100kg,DEF,NA,DEF
harris andrews,Harris,Andrews,BRI,31,193,27,11-Dec-96,202cm,98kg,DEF,NA,DEF
harrison himmelberg,Harrison,Himmelberg,GWS,27,159,27,8-May-96,195cm,94kg,DEF,NA,DEF
harry cunningham,Harry,Cunningham,SYD,7,190,30,6-Dec-93,181cm,78kg,DEF,NA,DEF
harry edwards,Harry,Edwards,WCE,42,30,23,1-Oct-00,200cm,98kg,DEF,NA,DEF
harry perryman,Harry,Perryman,GWS,36,114,25,19-Dec-98,187cm,83kg,DEF,NA,DEF
harry sheezel,Harry,Sheezel,NOR,3,29,19,13-Oct-04,185cm,80kg,DEF,NA,DEF
heath chapman,Heath,Chapman,FRE,5,26,22,31-Jan-02,193cm,87kg,DEF,NA,DEF
hugo ralphsmith,Hugo,Ralphsmith,RIC,13,34,22,9-Nov-01,187cm,81kg,DEF,NA,DEF
isaac quaynor,Isaac,Quaynor,COL,3,92,24,15-Jan-00,180cm,88kg,DEF,NA,DEF
jack buckley,Jack,Buckley,GWS,44,50,26,17-Dec-97,195cm,91kg,DEF,NA,DEF
jack henry,Jack,Henry,GEE,38,124,25,29-Aug-98,192cm,96kg,DEF,NA,DEF
jack payne,Jack,Payne,BRI,40,56,24,15-Oct-99,197cm,104kg,DEF,NA,DEF
jack scrimshaw,Jack,Scrimshaw,HAW,14,89,25,4-Sep-98,194cm,90kg,DEF,NA,DEF
jack sinclair,Jack,Sinclair,STK,35,170,29,12-Feb-95,181cm,82kg,DEF,NA,DEF
jackson archer,Jackson,Archer,NOR,34,8,21,9-Jan-03,187cm,80kg,DEF,NA,DEF
jacob weitering,Jacob,Weitering,CAR,23,163,26,23-Nov-97,195cm,102kg,DEF,NA,DEF
jai serong,Jai,Serong,HAW,29,6,21,16-Feb-03,193cm,84kg,DEF,NA,DEF
jake bowey,Jake,Bowey,MEL,17,48,21,12-Sep-02,175cm,72kg,DEF,NA,DEF
jake kolodjashnij,Jake,Kolodjashnij,GEE,8,179,28,9-Aug-95,193cm,100kg,DEF,NA,DEF
jake lever,Jake,Lever,MEL,8,167,28,5-Mar-96,194cm,94kg,DEF,NA,DEF
jakob ryan,Jakob,Ryan,COL,24,1,19,20-Sep-04,189cm,80kg,DEF,NA,DEF
jamaine jones,Jamaine,Jones,WCE,31,57,25,29-Sep-98,180cm,80kg,DEF,NA,DEF
james blanck,James,Blanck,HAW,36,24,23,20-Nov-00,196cm,93kg,DEF,NA,DEF
james borlase,James,Borlase,ADE,35,7,21,18-Jul-02,192cm,101kg,DEF,NA,DEF
james madden,James,Madden,BRI,14,13,24,15-Nov-99,188cm,88kg,DEF,NA,DEF
james o'donnell,James,O'Donnell,WBD,18,14,21,31-Aug-02,197cm,88kg,DEF,NA,DEF
james sicily,James,Sicily,HAW,6,140,29,6-Jan-95,188cm,90kg,DEF,NA,DEF
james trezise,James,Trezise,RIC,36,2,21,15-Jun-02,188cm,76kg,DEF,NA,DEF
jarman impey,Jarman,Impey,HAW,4,178,28,9-Jul-95,178cm,79kg,DEF,NA,DEF
jase burgoyne,Jase,Burgoyne,POR,7,18,20,15-Jul-03,186cm,70kg,DEF,NA,DEF
jason johannisen,Jason,Johannisen,WBD,39,193,31,8-Nov-92,181cm,82kg,DEF,NA,DEF
jaxon prior,Jaxon,Prior,BRI,20,35,22,4-Jun-01,189cm,85kg,DEF,NA,DEF
jayden laverde,Jayden,Laverde,ESS,15,116,28,12-Apr-96,193cm,92kg,DEF,NA,DEF
jayden short,Jayden,Short,RIC,15,159,28,24-Jan-96,178cm,75kg,DEF,NA,DEF
jed bews,Jed,Bews,GEE,24,166,30,14-Dec-93,186cm,90kg,DEF,NA,DEF
jeremy howe,Jeremy,Howe,COL,38,239,33,29-Jun-90,190cm,86kg,DEF,NA,DEF
jeremy mcgovern,Jeremy,McGovern,WCE,20,178,32,15-Apr-92,197cm,97kg,DEF,NA,DEF
jimmy webster,Jimmy,Webster,STK,29,150,30,28-Jun-93,188cm,84kg,DEF,NA,DEF
joel hamling,Joel,Hamling,SYD,29,91,31,9-Apr-93,194cm,92kg,DEF,NA,DEF
john noble,John,Noble,COL,9,97,27,25-Mar-97,180cm,72kg,DEF,NA,DEF
jordan boyd,Jordan,Boyd,CAR,37,22,25,22-Sep-98,182cm,81kg,DEF,NA,DEF
jordan clark,Jordan,Clark,FRE,6,85,23,16-Oct-00,185cm,83kg,DEF,NA,DEF
jordan ridley,Jordan,Ridley,ESS,14,85,25,20-Oct-98,195cm,94kg,DEF,NA,DEF
jordon butts,Jordon,Butts,ADE,41,64,24,31-Dec-99,198cm,97kg,DEF,NA,DEF
josh battle,Josh,Battle,STK,26,106,25,1-Sep-98,193cm,93kg,DEF,NA,DEF
josh draper,Josh,Draper,FRE,37,5,20,8-Feb-04,197cm,92kg,DEF,NA,DEF
josh gibcus,Josh,Gibcus,RIC,18,20,21,4-Apr-03,196cm,91kg,DEF,NA,DEF
josh goater,Josh,Goater,NOR,31,12,20,2-Jun-03,190cm,87kg,DEF,NA,DEF
josh rotham,Josh,Rotham,WCE,35,62,26,25-Feb-98,193cm,88kg,DEF,NA,DEF
josh worrell,Josh,Worrell,ADE,24,23,23,11-Apr-01,195cm,93kg,DEF,NA,DEF
joshua weddle,Joshua,Weddle,HAW,23,23,19,25-May-04,191cm,92kg,DEF,NA,DEF
judd mcvee,Judd,McVee,MEL,4,32,20,7-Aug-03,185cm,76kg,DEF,NA,DEF
jy farrar,Jy,Farrar,GCS,50,34,27,7-Dec-96,190cm,81kg,DEF,NA,DEF
kaine baldwin,Kaine,Baldwin,ESS,26,8,21,30-May-02,193cm,97kg,DEF,NA,DEF
kallan dawson,Kallan,Dawson,NOR,42,9,25,22-Jul-98,196cm,90kg,DEF,NA,DEF
kane farrell,Kane,Farrell,POR,6,77,25,17-Mar-99,182cm,80kg,DEF,NA,DEF
karl worner,Karl,Worner,FRE,23,5,21,16-Jun-02,188cm,83kg,DEF,NA,DEF
keidean coleman,Keidean,Coleman,BRI,18,65,24,31-Mar-00,182cm,82kg,DEF,NA,DEF
lachie whitfield,Lachie,Whitfield,GWS,6,216,29,18-Jul-94,185cm,83kg,DEF,NA,DEF
lachlan ash,Lachlan,Ash,GWS,7,89,22,21-Jun-01,188cm,85kg,DEF,NA,DEF
lachlan cowan,Lachlan,Cowan,CAR,2,8,19,1-Dec-04,188cm,82kg,DEF,NA,DEF
lachlan jones,Lachlan,Jones,POR,34,41,22,9-Apr-02,186cm,91kg,DEF,NA,DEF
lachlan weller,Lachlan,Weller,GCS,14,136,28,23-Feb-96,182cm,80kg,DEF,NA,DEF
leek aleer,Leek,Aleer,GWS,21,6,22,21-Aug-01,194cm,88kg,DEF,NA,DEF
lewis melican,Lewis,Melican,SYD,43,66,27,4-Nov-96,194cm,99kg,DEF,NA,DEF
lewis young,Lewis,Young,CAR,33,61,25,20-Dec-98,202cm,99kg,DEF,NA,DEF
liam duggan,Liam,Duggan,WCE,14,164,27,11-Dec-96,186cm,83kg,DEF,NA,DEF
liam jones,Liam,Jones,WBD,19,185,33,24-Feb-91,199cm,98kg,DEF,NA,DEF
liam stocker,Liam,Stocker,STK,14,57,24,23-Jan-00,184cm,86kg,DEF,NA,DEF
lloyd johnston,Lloyd,Johnston,GCS,38,2,19,21-Sep-04,184cm,76kg,DEF,NA,DEF
luke cleary,Luke,Cleary,WBD,36,5,22,5-Mar-02,191cm,81kg,DEF,NA,DEF
luke mcdonald,Luke,McDonald,NOR,11,186,29,9-Feb-95,189cm,87kg,DEF,NA,DEF
luke ryan,Luke,Ryan,FRE,13,138,28,6-Feb-96,186cm,92kg,DEF,NA,DEF
mac andrew,Mac,Andrew,GCS,31,24,20,4-Dec-03,202cm,84kg,DEF,NA,DEF
mark keane,Mark,Keane,ADE,48,15,24,17-Mar-00,194cm,96kg,DEF,NA,DEF
marty hore,Marty,Hore,MEL,27,17,28,5-Mar-96,190cm,84kg,DEF,NA,DEF
mason redman,Mason,Redman,ESS,27,109,26,26-Aug-97,187cm,87kg,DEF,NA,DEF
max michalanney,Max,Michalanney,ADE,16,28,20,26-Feb-04,190cm,80kg,DEF,NA,DEF
miller bergman,Miller,Bergman,NOR,27,13,21,25-Jan-03,189cm,73kg,DEF,NA,DEF
mitch mcgovern,Mitch,McGovern,CAR,11,115,29,11-Oct-94,190cm,88kg,DEF,NA,DEF
mitchell duncan,Mitchell,Duncan,GEE,22,279,32,10-Jun-91,188cm,84kg,DEF,NA,DEF
mitchell hinge,Mitchell,Hinge,ADE,20,49,25,26-Jun-98,190cm,90kg,DEF,NA,DEF
nasiah wanganeen-milera,Nasiah,Wanganeen-Milera,STK,7,47,21,22-Feb-03,187cm,76kg,DEF,NA,DEF
nathan broad,Nathan,Broad,RIC,35,132,31,15-Apr-93,192cm,86kg,DEF,NA,DEF
nathan murphy,Nathan,Murphy,COL,28,57,24,15-Dec-99,192cm,90kg,DEF,NA,DEF
nic newman,Nic,Newman,CAR,24,116,31,15-Jan-93,186cm,80kg,DEF,NA,DEF
nicholas coffield,Nicholas,Coffield,WBD,17,54,24,23-Oct-99,191cm,90kg,DEF,NA,DEF
nick blakey,Nick,Blakey,SYD,22,108,24,27-Feb-00,196cm,83kg,DEF,NA,DEF
nick haynes,Nick,Haynes,GWS,19,205,31,18-May-92,192cm,88kg,DEF,NA,DEF
nick murray,Nick,Murray,ADE,28,46,23,18-Dec-00,194cm,100kg,DEF,NA,DEF
nick vlastuin,Nick,Vlastuin,RIC,1,218,30,19-Apr-94,187cm,88kg,DEF,NA,DEF
oisin mullin,Oisin,Mullin,GEE,34,8,24,11-Feb-00,182cm,85kg,DEF,NA,DEF
oleg markov,Oleg,Markov,COL,37,77,27,8-May-96,188cm,85kg,DEF,NA,DEF
oliver florent,Oliver,Florent,SYD,13,148,25,22-Jul-98,184cm,84kg,DEF,NA,DEF
oscar mcdonald,Oscar,McDonald,FRE,21,87,28,18-Mar-96,196cm,100kg,DEF,NA,DEF
patrick parnell,Patrick,Parnell,ADE,37,17,22,4-Mar-02,178cm,76kg,DEF,NA,DEF
rhett bazzo,Rhett,Bazzo,WCE,33,20,20,17-Oct-03,195cm,86kg,DEF,NA,DEF
rory atkins,Rory,Atkins,GCS,2,136,29,12-Jul-94,185cm,82kg,DEF,NA,DEF
ryan burton,Ryan,Burton,POR,3,145,27,31-Jan-97,191cm,92kg,DEF,NA,DEF
ryan gardner,Ryan,Gardner,WBD,43,53,26,1-Jun-97,197cm,94kg,DEF,NA,DEF
ryan lester,Ryan,Lester,BRI,35,187,31,26-Aug-92,192cm,84kg,DEF,NA,DEF
sam de koning,Sam,De Koning,GEE,16,49,23,26-Feb-01,204cm,97kg,DEF,NA,DEF
sam durdin,Sam,Durdin,CAR,38,23,27,6-Jun-96,199cm,100kg,DEF,NA,DEF
sam frost,Sam,Frost,HAW,8,165,30,28-Aug-93,194cm,94kg,DEF,NA,DEF
sam taylor,Sam,Taylor,GWS,15,98,24,5-May-99,198cm,95kg,DEF,NA,DEF
samuel collins,Samuel,Collins,GCS,25,110,29,15-Jun-94,194cm,98kg,DEF,NA,DEF
seamus mitchell,Seamus,Mitchell,HAW,40,17,21,3-Jul-02,181cm,80kg,DEF,NA,DEF
sean lemmens,Sean,Lemmens,GCS,23,145,29,2-Nov-94,184cm,81kg,DEF,NA,DEF
steven may,Steven,May,MEL,1,222,32,10-Jan-92,193cm,101kg,DEF,NA,DEF
taylor duryea,Taylor,Duryea,WBD,15,196,33,24-Apr-91,181cm,81kg,DEF,NA,DEF
thomas stewart,Thomas,Stewart,GEE,44,154,31,15-Mar-93,190cm,88kg,DEF,NA,DEF
toby pink,Toby,Pink,NOR,32,3,25,11-Aug-98,194cm,92kg,DEF,NA,DEF
tom barrass,Tom,Barrass,WCE,37,138,28,8-Oct-95,197cm,96kg,DEF,NA,DEF
tom brown,Tom,Brown,RIC,30,6,20,30-Jul-03,193cm,81kg,DEF,NA,DEF
tom clurey,Tom,Clurey,POR,17,124,30,23-Mar-94,193cm,95kg,DEF,NA,DEF
tom cole,Tom,Cole,WCE,28,96,26,28-May-97,188cm,83kg,DEF,NA,DEF
tom doedee,Tom,Doedee,BRI,12,82,27,1-Mar-97,190cm,90kg,DEF,NA,DEF
tom mccartin,Tom,McCartin,SYD,30,116,24,30-Dec-99,194cm,99kg,DEF,NA,DEF
trent mckenzie,Trent,McKenzie,POR,12,165,32,3-Apr-92,191cm,89kg,DEF,NA,DEF
trent rivers,Trent,Rivers,MEL,24,84,22,30-Jul-01,188cm,87kg,DEF,NA,DEF
tylar young,Tylar,Young,RIC,45,25,25,5-Sep-98,196cm,97kg,DEF,NA,DEF
wayne milera,Wayne,Milera,ADE,30,99,26,14-Sep-97,184cm,88kg,DEF,NA,DEF
wil powell,Wil,Powell,GCS,27,93,24,26-Aug-99,188cm,87kg,DEF,NA,DEF
will hamill,Will,Hamill,ADE,17,40,23,17-Nov-00,187cm,84kg,DEF,NA,DEF
zach guthrie,Zach,Guthrie,GEE,39,83,25,30-Jun-98,188cm,84kg,DEF,NA,DEF
zach reid,Zach,Reid,ESS,31,9,22,2-Mar-02,202cm,90kg,DEF,NA,DEF
zachary williams,Zachary,Williams,CAR,6,142,29,20-Sep-94,186cm,85kg,DEF,NA,DEF
adam kennedy,Adam,Kennedy,GWS,40,153,31,12-Jul-92,183cm,80kg,DEF,FWD,DEF FWD
alex sexton,Alex,Sexton,GCS,6,169,30,3-Dec-93,186cm,82kg,DEF,FWD,DEF FWD
blake hardwick,Blake,Hardwick,HAW,15,153,27,5-Feb-97,183cm,84kg,DEF,FWD,DEF FWD
buku khamis,Buku,Khamis,WBD,24,16,24,24-Mar-00,191cm,87kg,DEF,FWD,DEF FWD
callum jamieson,Callum,Jamieson,WCE,40,17,23,31-Jul-00,201cm,98kg,DEF,FWD,DEF FWD
charlie comben,Charlie,Comben,NOR,30,12,22,20-Jul-01,199cm,94kg,DEF,FWD,DEF FWD
darcy gardiner,Darcy,Gardiner,BRI,27,164,28,22-Sep-95,192cm,91kg,DEF,FWD,DEF FWD
denver grainger-barras,Denver,Grainger-Barras,HAW,24,28,22,17-Apr-02,194cm,84kg,DEF,FWD,DEF FWD
harrison petty,Harrison,Petty,MEL,35,67,24,12-Nov-99,197cm,94kg,DEF,FWD,DEF FWD
jack lukosius,Jack,Lukosius,GCS,13,101,23,9-Aug-00,195cm,91kg,DEF,FWD,DEF FWD
joel jeffrey,Joel,Jeffrey,GCS,40,16,22,12-Mar-02,192cm,86kg,DEF,FWD,DEF FWD
laitham vandermeer,Laitham,Vandermeer,WBD,23,50,25,3-Feb-99,182cm,78kg,DEF,FWD,DEF FWD
liam baker,Liam,Baker,RIC,7,116,26,27-Jan-98,173cm,72kg,DEF,FWD,DEF FWD
nick hind,Nick,Hind,ESS,19,86,29,19-Aug-94,180cm,78kg,DEF,FWD,DEF FWD
noah answerth,Noah,Answerth,BRI,43,61,24,6-Aug-99,183cm,82kg,DEF,FWD,DEF FWD
noah balta,Noah,Balta,RIC,21,89,24,23-Oct-99,194cm,105kg,DEF,FWD,DEF FWD
robbie fox,Robbie,Fox,SYD,42,92,31,16-Apr-93,185cm,84kg,DEF,FWD,DEF FWD
taj woewodin,Taj,Woewodin,MEL,40,9,21,26-Mar-03,182cm,81kg,DEF,FWD,DEF FWD
tom mcdonald,Tom,McDonald,MEL,25,216,31,18-Sep-92,195cm,101kg,DEF,FWD,DEF FWD
zac fisher,Zac,Fisher,NOR,16,113,25,15-Jun-98,175cm,76kg,DEF,FWD,DEF FWD
zaine cordy,Zaine,Cordy,STK,21,138,27,27-Oct-96,195cm,92kg,DEF,FWD,DEF FWD
angus brayshaw,Angus,Brayshaw,MEL,10,167,28,9-Jan-96,188cm,90kg,DEF,MID,DEF MID
bailey scott,Bailey,Scott,NOR,8,84,23,9-Jul-00,186cm,77kg,DEF,MID,DEF MID
braeden campbell,Braeden,Campbell,SYD,16,54,22,4-Feb-02,181cm,80kg,DEF,MID,DEF MID
caleb mitchell,Caleb,Mitchell,SYD,35,2,19,10-Aug-04,186cm,81kg,DEF,MID,DEF MID
chayce jones,Chayce,Jones,ADE,1,82,24,14-Jan-00,182cm,84kg,DEF,MID,DEF MID
christian salem,Christian,Salem,MEL,3,165,28,15-Jul-95,184cm,81kg,DEF,MID,DEF MID
colby mckercher,Colby,McKercher,NOR,10,6,19,12-Apr-05,182cm,76kg,DEF,MID,DEF MID
elliot yeo,Elliot,Yeo,WCE,6,198,30,1-Oct-93,191cm,91kg,DEF,MID,DEF MID
hayden young,Hayden,Young,FRE,26,63,23,11-Apr-01,189cm,88kg,DEF,MID,DEF MID
isaac cumming,Isaac,Cumming,GWS,13,75,25,11-Aug-98,188cm,84kg,DEF,MID,DEF MID
jack bowes,Jack,Bowes,GEE,12,104,26,26-Jan-98,189cm,85kg,DEF,MID,DEF MID
jack crisp,Jack,Crisp,COL,25,233,30,2-Oct-93,190cm,91kg,DEF,MID,DEF MID
jake kelly,Jake,Kelly,ESS,29,154,29,21-Jan-95,190cm,90kg,DEF,MID,DEF MID
jake lloyd,Jake,Lloyd,SYD,44,229,30,20-Sep-93,182cm,81kg,DEF,MID,DEF MID
james aish,James,Aish,FRE,11,169,28,8-Oct-95,183cm,83kg,DEF,MID,DEF MID
jayden hunt,Jayden,Hunt,WCE,5,143,29,3-Apr-95,188cm,82kg,DEF,MID,DEF MID
karl amon,Karl,Amon,HAW,10,151,28,19-Aug-95,181cm,71kg,DEF,MID,DEF MID
lachlan bramble,Lachlan,Bramble,WBD,29,36,26,19-Apr-98,182cm,77kg,DEF,MID,DEF MID
luke nankervis,Luke,Nankervis,ADE,27,7,20,25-May-03,191cm,85kg,DEF,MID,DEF MID
marcus windhager,Marcus,Windhager,STK,2,42,20,16-May-03,185cm,85kg,DEF,MID,DEF MID
mark o'connor,Mark,O'Connor,GEE,42,115,27,17-Jan-97,189cm,88kg,DEF,MID,DEF MID
massimo d'ambrosio,Massimo,D'Ambrosio,HAW,16,22,20,5-Jun-03,178cm,80kg,DEF,MID,DEF MID
matthew roberts,Matthew,Roberts,SYD,34,13,20,31-Jul-03,184cm,86kg,DEF,MID,DEF MID
max holmes,Max,Holmes,GEE,9,57,21,29-Aug-02,190cm,85kg,DEF,MID,DEF MID
miles bergman,Miles,Bergman,POR,14,63,22,18-Oct-01,189cm,86kg,DEF,MID,DEF MID
nicholas martin,Nicholas,Martin,ESS,37,51,23,3-Apr-01,192cm,86kg,DEF,MID,DEF MID
nick daicos,Nick,Daicos,COL,35,54,21,3-Jan-03,184cm,79kg,DEF,MID,DEF MID
nikolas cox,Nikolas,Cox,ESS,13,40,22,15-Jan-02,200cm,94kg,DEF,MID,DEF MID
riley bonner,Riley,Bonner,STK,36,99,27,7-Mar-97,190cm,85kg,DEF,MID,DEF MID
sam banks,Sam,Banks,RIC,41,10,21,2-Apr-03,187cm,74kg,DEF,MID,DEF MID
sam clohesy,Sam,Clohesy,GCS,33,3,21,12-Dec-02,189cm,81kg,DEF,MID,DEF MID
tom atkins,Tom,Atkins,GEE,30,110,28,18-Sep-95,180cm,86kg,DEF,MID,DEF MID
will graham,Will,Graham,GCS,26,3,18,27-Jul-05,186cm,81kg,DEF,MID,DEF MID
will hoskin-elliott,Will,Hoskin-Elliott,COL,32,210,30,2-Sep-93,186cm,82kg,DEF,MID,DEF MID
aaron cadman,Aaron,Cadman,GWS,5,19,20,3-Mar-04,195cm,93kg,FWD,NA,FWD
aaron naughton,Aaron,Naughton,WBD,33,129,24,30-Nov-99,196cm,92kg,FWD,NA,FWD
alex neal-bullen,Alex,Neal-Bullen,MEL,30,160,28,9-Jan-96,182cm,80kg,FWD,NA,FWD
alwyn davey,Alwyn,Davey,ESS,33,14,20,26-Feb-04,181cm,77kg,FWD,NA,FWD
anthony caminiti,Anthony,Caminiti,STK,47,22,20,9-Dec-03,196cm,85kg,FWD,NA,FWD
arthur jones,Arthur,Jones,WBD,32,13,20,18-Jul-03,180cm,71kg,FWD,NA,FWD
ash johnson,Ash,Johnson,COL,40,26,26,6-Oct-97,193cm,91kg,FWD,NA,FWD
bailey banfield,Bailey,Banfield,FRE,41,81,26,26-Feb-98,190cm,88kg,FWD,NA,FWD
bailey humphrey,Bailey,Humphrey,GCS,19,24,19,11-Sep-04,186cm,86kg,FWD,NA,FWD
bailey laurie,Bailey,Laurie,MEL,16,7,22,24-Mar-02,179cm,79kg,FWD,NA,FWD
bayley fritsch,Bayley,Fritsch,MEL,31,133,27,6-Dec-96,188cm,86kg,FWD,NA,FWD
beau mccreery,Beau,McCreery,COL,31,67,23,19-Apr-01,186cm,86kg,FWD,NA,FWD
ben ainsworth,Ben,Ainsworth,GCS,9,123,26,10-Feb-98,178cm,77kg,FWD,NA,FWD
ben brown,Ben,Brown,MEL,50,174,31,20-Nov-92,200cm,100kg,FWD,NA,FWD
ben keays,Ben,Keays,ADE,2,119,27,23-Feb-97,186cm,86kg,FWD,NA,FWD
ben king,Ben,King,GCS,34,79,23,7-Jul-00,202cm,98kg,FWD,NA,FWD
bigoa nyuon,Bigoa,Nyuon,NOR,28,3,22,18-May-01,197cm,90kg,FWD,NA,FWD
blake drury,Blake,Drury,NOR,41,6,20,11-Jan-04,177cm,74kg,FWD,NA,FWD
bobby hill,Bobby,Hill,COL,23,72,24,9-Feb-00,175cm,71kg,FWD,NA,FWD
bradley close,Bradley,Close,GEE,45,82,25,30-Jul-98,183cm,77kg,FWD,NA,FWD
brandon ryan,Brandon,Ryan,BRI,24,3,26,7-Nov-97,200cm,91kg,FWD,NA,FWD
brent daniels,Brent,Daniels,GWS,16,88,25,9-Mar-99,172cm,75kg,FWD,NA,FWD
brody mihocek,Brody,Mihocek,COL,41,133,31,4-Feb-93,192cm,99kg,FWD,NA,FWD
callum brown,Callum,Brown,GWS,46,36,23,15-Aug-00,188cm,95kg,FWD,NA,FWD
callum coleman-jones,Callum,Coleman-Jones,NOR,21,31,24,13-Jun-99,200cm,104kg,FWD,NA,FWD
cameron zurhaar,Cameron,Zurhaar,NOR,44,104,25,22-May-98,190cm,91kg,FWD,NA,FWD
chad wingard,Chad,Wingard,HAW,20,218,30,29-Jul-93,183cm,80kg,FWD,NA,FWD
charlie cameron,Charlie,Cameron,BRI,23,209,29,5-Jul-94,180cm,76kg,FWD,NA,FWD
charlie curnow,Charlie,Curnow,CAR,30,116,27,3-Feb-97,194cm,94kg,FWD,NA,FWD
charlie dixon,Charlie,Dixon,POR,22,208,33,23-Sep-90,200cm,110kg,FWD,NA,FWD
charlie spargo,Charlie,Spargo,MEL,9,98,24,25-Nov-99,172cm,75kg,FWD,NA,FWD
chris burgess,Chris,Burgess,ADE,21,40,28,26-Nov-95,194cm,97kg,FWD,NA,FWD
cody weightman,Cody,Weightman,WBD,3,65,23,15-Jan-01,179cm,75kg,FWD,NA,FWD
connor macdonald,Connor,MacDonald,HAW,31,47,21,13-Jan-03,185cm,79kg,FWD,NA,FWD
conor stone,Conor,Stone,GWS,18,9,22,22-Apr-02,189cm,87kg,FWD,NA,FWD
cooper harvey,Cooper,Harvey,NOR,37,3,19,12-Jul-04,180cm,81kg,FWD,NA,FWD
cooper sharman,Cooper,Sharman,STK,43,37,23,25-Jul-00,193cm,88kg,FWD,NA,FWD
corey durdin,Corey,Durdin,CAR,19,39,22,14-Apr-02,173cm,76kg,FWD,NA,FWD
corey warner,Corey,Warner,SYD,37,5,20,7-Oct-03,182cm,77kg,FWD,NA,FWD
daniel butler,Daniel,Butler,STK,16,133,27,3-Jun-96,182cm,81kg,FWD,NA,FWD
daniel mcstay,Daniel,McStay,COL,11,175,28,24-Jun-95,195cm,99kg,FWD,NA,FWD
darcy byrne-jones,Darcy,Byrne-Jones,POR,33,179,28,20-Sep-95,181cm,77kg,FWD,NA,FWD
darcy fogarty,Darcy,Fogarty,ADE,32,85,24,25-Sep-99,194cm,100kg,FWD,NA,FWD
darcy jones,Darcy,Jones,GWS,2,1,20,3-Apr-04,175cm,63kg,FWD,NA,FWD
david cuningham,David,Cuningham,CAR,28,55,27,30-Mar-97,183cm,83kg,FWD,NA,FWD
dustin martin,Dustin,Martin,RIC,4,294,32,26-Jun-91,187cm,93kg,FWD,NA,FWD
dylan moore,Dylan,Moore,HAW,13,81,24,4-Aug-99,177cm,77kg,FWD,NA,FWD
eddie ford,Eddie,Ford,NOR,40,28,21,21-Jun-02,189cm,81kg,FWD,NA,FWD
elliott himmelberg,Elliott,Himmelberg,ADE,34,41,25,4-Jun-98,199cm,99kg,FWD,NA,FWD
eric hipwood,Eric,Hipwood,BRI,30,160,26,13-Sep-97,203cm,94kg,FWD,NA,FWD
francis evans,Francis,Evans,POR,31,20,22,23-Aug-01,182cm,85kg,FWD,NA,FWD
gary rohan,Gary,Rohan,GEE,23,192,32,7-Jun-91,189cm,92kg,FWD,NA,FWD
gryan miers,Gryan,Miers,GEE,32,112,25,30-Mar-99,179cm,81kg,FWD,NA,FWD
harrison jones,Harrison,Jones,ESS,23,37,23,25-Feb-01,196cm,88kg,FWD,NA,FWD
harry mckay,Harry,McKay,CAR,10,113,26,24-Dec-97,200cm,106kg,FWD,NA,FWD
harvey harrison,Harvey,Harrison,COL,36,5,20,10-Nov-03,181cm,83kg,FWD,NA,FWD
izak rankine,Izak,Rankine,ADE,23,74,24,23-Apr-00,181cm,82kg,FWD,NA,FWD
jack buller,Jack,Buller,SYD,39,1,22,16-May-01,199cm,99kg,FWD,NA,FWD
jack darling,Jack,Darling,WCE,27,283,31,13-Jun-92,191cm,95kg,FWD,NA,FWD
jack ginnivan,Jack,Ginnivan,HAW,33,48,21,9-Dec-02,185cm,85kg,FWD,NA,FWD
jack graham,Jack,Graham,RIC,34,120,26,25-Feb-98,181cm,85kg,FWD,NA,FWD
jack gunston,Jack,Gunston,HAW,19,245,32,16-Oct-91,193cm,86kg,FWD,NA,FWD
jack hayes,Jack,Hayes,STK,18,6,28,6-Mar-96,194cm,94kg,FWD,NA,FWD
jack higgins,Jack,Higgins,STK,1,108,25,19-Mar-99,178cm,82kg,FWD,NA,FWD
jack martin,Jack,Martin,CAR,21,148,29,29-Jan-95,186cm,82kg,FWD,NA,FWD
jack petruccelle,Jack,Petruccelle,WCE,21,78,25,12-Apr-99,188cm,83kg,FWD,NA,FWD
jack silvagni,Jack,Silvagni,CAR,1,115,26,17-Dec-97,194cm,92kg,FWD,NA,FWD
jack williams,Jack,Williams,WCE,34,15,20,1-Dec-03,198cm,99kg,FWD,NA,FWD
jacob bauer,Jacob,Bauer,RIC,43,4,21,4-Jun-02,192cm,86kg,FWD,NA,FWD
jacob koschitzke,Jacob,Koschitzke,RIC,20,51,23,11-Jul-00,196cm,96kg,FWD,NA,FWD
jacob van rooyen,Jacob,Van Rooyen,MEL,2,27,21,16-Apr-03,193cm,96kg,FWD,NA,FWD
jade gresham,Jade,Gresham,ESS,11,143,26,24-Aug-97,177cm,81kg,FWD,NA,FWD
jaidyn stephenson,Jaidyn,Stephenson,NOR,2,114,25,15-Jan-99,189cm,79kg,FWD,NA,FWD
jake melksham,Jake,Melksham,MEL,18,221,32,29-Aug-91,186cm,85kg,FWD,NA,FWD
jake riccardi,Jake,Riccardi,GWS,26,57,24,7-Nov-99,198cm,100kg,FWD,NA,FWD
jake stringer,Jake,Stringer,ESS,25,196,30,25-Apr-94,192cm,92kg,FWD,NA,FWD
jake waterman,Jake,Waterman,WCE,2,90,25,6-May-98,192cm,92kg,FWD,NA,FWD
jamarra ugle-hagan,Jamarra,Ugle-Hagan,WBD,2,50,22,4-Apr-02,197cm,91kg,FWD,NA,FWD
james tsitas,James,Tsitas,GCS,21,5,29,3-Mar-95,181cm,83kg,FWD,NA,FWD
james tunstill,James,Tunstill,BRI,29,9,20,18-Jul-03,187cm,81kg,FWD,NA,FWD
jamie cripps,Jamie,Cripps,WCE,15,234,32,23-Apr-92,184cm,83kg,FWD,NA,FWD
jamie elliott,Jamie,Elliott,COL,5,186,31,21-Aug-92,178cm,83kg,FWD,NA,FWD
jed mcentee,Jed,McEntee,POR,41,37,23,15-Feb-01,176cm,80kg,FWD,NA,FWD
jed walter,Jed,Walter,GCS,17,4,18,8-Jun-05,195cm,97kg,FWD,NA,FWD
jeremy cameron,Jeremy,Cameron,GEE,5,236,31,1-Apr-93,196cm,94kg,FWD,NA,FWD
jeremy finlayson,Jeremy,Finlayson,POR,11,112,28,9-Feb-96,197cm,93kg,FWD,NA,FWD
jesse hogan,Jesse,Hogan,GWS,23,147,29,12-Feb-95,196cm,100kg,FWD,NA,FWD
jesse motlop,Jesse,Motlop,CAR,3,33,20,23-Nov-03,180cm,81kg,FWD,NA,FWD
joe daniher,Joe,Daniher,BRI,3,184,30,4-Mar-94,201cm,96kg,FWD,NA,FWD
joel amartey,Joel,Amartey,SYD,36,34,24,2-Sep-99,195cm,100kg,FWD,NA,FWD
joel smith,Joel,Smith,MEL,29,42,28,25-Feb-96,191cm,90kg,FWD,NA,FWD
josh carmichael,Josh,Carmichael,COL,12,8,24,23-Sep-99,190cm,88kg,FWD,NA,FWD
josh corbett,Josh,Corbett,FRE,19,41,28,23-Apr-96,190cm,88kg,FWD,NA,FWD
josh rachele,Josh,Rachele,ADE,8,40,21,11-Apr-03,179cm,84kg,FWD,NA,FWD
josh schache,Josh,Schache,MEL,19,76,26,21-Aug-97,199cm,94kg,FWD,NA,FWD
josh treacy,Josh,Treacy,FRE,35,42,21,4-Aug-02,195cm,92kg,FWD,NA,FWD
judson clarke,Judson,Clarke,RIC,23,17,20,17-Oct-03,180cm,73kg,FWD,NA,FWD
jye amiss,Jye,Amiss,FRE,24,31,20,31-Jul-03,196cm,86kg,FWD,NA,FWD
jye menzie,Jye,Menzie,ESS,47,28,21,28-Oct-02,180cm,84kg,FWD,NA,FWD
kade chandler,Kade,Chandler,MEL,37,40,24,13-Jan-00,175cm,79kg,FWD,NA,FWD
kai lohmann,Kai,Lohmann,BRI,1,15,20,6-May-03,185cm,77kg,FWD,NA,FWD
koltyn tholstrup,Koltyn,Tholstrup,MEL,39,1,18,28-Jun-05,186cm,86kg,FWD,NA,FWD
kyle langford,Kyle,Langford,ESS,4,137,27,1-Dec-96,192cm,88kg,FWD,NA,FWD
kysaiah pickett,Kysaiah,Pickett,MEL,36,90,22,2-Jun-01,171cm,73kg,FWD,NA,FWD
lachlan fogarty,Lachlan,Fogarty,CAR,8,59,25,1-Apr-99,180cm,76kg,FWD,NA,FWD
lachlan gollant,Lachlan,Gollant,ADE,44,15,22,12-Sep-01,193cm,85kg,FWD,NA,FWD
lachlan keeffe,Lachlan,Keeffe,GWS,25,111,34,14-Apr-90,204cm,101kg,FWD,NA,FWD
lachlan mcneil,Lachlan,McNeil,WBD,30,43,22,2-Sep-01,184cm,79kg,FWD,NA,FWD
lachlan murphy,Lachlan,Murphy,ADE,4,101,25,4-Dec-98,174cm,83kg,FWD,NA,FWD
lachlan schultz,Lachlan,Schultz,COL,8,97,26,30-Nov-97,178cm,81kg,FWD,NA,FWD
lance collard,Lance,Collard,STK,4,1,19,26-Mar-05,185cm,65kg,FWD,NA,FWD
levi casboult,Levi,Casboult,GCS,30,198,34,15-Mar-90,199cm,104kg,FWD,NA,FWD
liam ryan,Liam,Ryan,WCE,1,89,27,2-Oct-96,181cm,76kg,FWD,NA,FWD
lincoln mccarthy,Lincoln,McCarthy,BRI,11,150,30,22-Oct-93,178cm,82kg,FWD,NA,FWD
logan mcdonald,Logan,McDonald,SYD,6,50,22,4-Apr-02,195cm,95kg,FWD,NA,FWD
luke breust,Luke,Breust,HAW,22,284,33,11-Nov-90,182cm,82kg,FWD,NA,FWD
luke pedlar,Luke,Pedlar,ADE,10,29,21,17-May-02,183cm,84kg,FWD,NA,FWD
mabior chol,Mabior,Chol,HAW,18,67,27,29-Jan-97,200cm,98kg,FWD,NA,FWD
malcolm rosas,Malcolm,Rosas,GCS,41,42,22,27-Jun-01,180cm,73kg,FWD,NA,FWD
matt coulthard,Matt,Coulthard,RIC,26,4,22,11-May-01,176cm,76kg,FWD,NA,FWD
matt guelfi,Matt,Guelfi,ESS,35,97,26,14-Aug-97,184cm,82kg,FWD,NA,FWD
matt owies,Matt,Owies,CAR,44,55,27,19-Mar-97,179cm,81kg,FWD,NA,FWD
mattaes phillipou,Mattaes,Phillipou,STK,25,30,19,27-Dec-04,190cm,88kg,FWD,NA,FWD
matthew taberner,Matthew,Taberner,FRE,20,124,30,17-Jun-93,198cm,97kg,FWD,NA,FWD
maurice rioli,Maurice,Rioli,RIC,10,33,21,1-Sep-02,179cm,81kg,FWD,NA,FWD
max king,Max,King,STK,12,75,23,7-Jul-00,202cm,100kg,FWD,NA,FWD
max ramsden,Max,Ramsden,HAW,38,4,21,19-Apr-03,203cm,86kg,FWD,NA,FWD
michael frederick,Michael,Frederick,FRE,32,62,23,17-May-00,183cm,80kg,FWD,NA,FWD
michael walters,Michael,Walters,FRE,10,228,33,7-Jan-91,176cm,77kg,FWD,NA,FWD
mitch georgiades,Mitch,Georgiades,POR,19,52,22,28-Sep-01,192cm,92kg,FWD,NA,FWD
mitchell lewis,Mitchell,Lewis,HAW,2,69,25,14-Oct-98,199cm,99kg,FWD,NA,FWD
mitchito owens,Mitchito,Owens,STK,10,36,20,24-Sep-03,191cm,91kg,FWD,NA,FWD
mykelti lefau,Mykelti,Lefau,RIC,42,5,25,22-Jun-98,194cm,94kg,FWD,NA,FWD
ned mchenry,Ned,McHenry,ADE,25,65,23,13-Jul-00,179cm,81kg,FWD,NA,FWD
nicholas holman,Nicholas,Holman,GCS,7,116,28,29-May-95,188cm,86kg,FWD,NA,FWD
nick larkey,Nick,Larkey,NOR,20,100,25,6-Jun-98,198cm,96kg,FWD,NA,FWD
noah cumberland,Noah,Cumberland,RIC,38,18,23,15-Mar-01,183cm,78kg,FWD,NA,FWD
noah long,Noah,Long,WCE,13,25,19,23-Aug-04,179cm,78kg,FWD,NA,FWD
oliver henry,Oliver,Henry,GEE,36,53,21,29-Jul-02,189cm,80kg,FWD,NA,FWD
ollie lord,Ollie,Lord,POR,30,13,22,2-Jan-02,197cm,92kg,FWD,NA,FWD
orazio fantasia,Orazio,Fantasia,CAR,14,105,28,14-Sep-95,180cm,73kg,FWD,NA,FWD
oscar allen,Oscar,Allen,WCE,12,83,25,19-Mar-99,196cm,96kg,FWD,NA,FWD
paul curtis,Paul,Curtis,NOR,25,42,21,4-Mar-03,185cm,84kg,FWD,NA,FWD
peter wright,Peter,Wright,ESS,20,122,27,8-Sep-96,203cm,102kg,FWD,NA,FWD
quinton narkle,Quinton,Narkle,POR,42,44,26,3-Dec-97,182cm,81kg,FWD,NA,FWD
reef mcinnes,Reef,McInnes,COL,26,15,21,12-Dec-02,194cm,90kg,FWD,NA,FWD
rhyan mansell,Rhyan,Mansell,RIC,31,38,23,4-Jun-00,180cm,77kg,FWD,NA,FWD
rhylee west,Rhylee,West,WBD,14,43,23,12-Jul-00,183cm,82kg,FWD,NA,FWD
riley garcia,Riley,Garcia,WBD,38,20,23,30-Jan-01,178cm,75kg,FWD,NA,FWD
riley thilthorpe,Riley,Thilthorpe,ADE,7,46,21,7-Jul-02,202cm,103kg,FWD,NA,FWD
robert hansen,Robert,Hansen,NOR,46,2,20,13-Mar-04,182cm,76kg,FWD,NA,FWD
rory lobb,Rory,Lobb,WBD,7,162,31,9-Feb-93,207cm,106kg,FWD,NA,FWD
ryan maric,Ryan,Maric,WCE,41,15,19,6-Sep-04,196cm,93kg,FWD,NA,FWD
sam butler,Sam,Butler,HAW,30,19,21,10-Feb-03,184cm,81kg,FWD,NA,FWD
sam darcy,Sam,Darcy,WBD,10,12,20,19-Jul-03,208cm,97kg,FWD,NA,FWD
sam day,Sam,Day,GCS,12,150,31,6-Sep-92,196cm,106kg,FWD,NA,FWD
sam powell-pepper,Sam,Powell-Pepper,POR,2,141,26,8-Jan-98,187cm,98kg,FWD,NA,FWD
sam reid,Sam,Reid,SYD,20,181,32,27-Dec-91,196cm,96kg,FWD,NA,FWD
sam sturt,Sam,Sturt,FRE,1,19,23,12-May-00,190cm,81kg,FWD,NA,FWD
sam switkowski,Sam,Switkowski,FRE,39,73,27,20-Nov-96,179cm,74kg,FWD,NA,FWD
sam weideman,Sam,Weideman,ESS,10,75,26,26-Jun-97,197cm,99kg,FWD,NA,FWD
sam wicks,Sam,Wicks,SYD,15,54,24,14-Sep-99,181cm,82kg,FWD,NA,FWD
seth campbell,Seth,Campbell,RIC,44,7,19,29-Dec-04,182cm,74kg,FWD,NA,FWD
shane mcadam,Shane,McAdam,MEL,23,50,28,28-May-95,186cm,80kg,FWD,NA,FWD
shannon neale,Shannon,Neale,GEE,33,6,21,25-Jul-02,203cm,101kg,FWD,NA,FWD
taylor walker,Taylor,Walker,ADE,13,265,34,25-Apr-90,194cm,102kg,FWD,NA,FWD
ted clohesy,Ted,Clohesy,GEE,40,1,19,6-Sep-04,184cm,77kg,FWD,NA,FWD
tex wanganeen,Tex,Wanganeen,ESS,40,5,20,10-Oct-03,179cm,78kg,FWD,NA,FWD
thomas berry,Thomas,Berry,GCS,16,32,23,1-May-00,185cm,80kg,FWD,NA,FWD
tim membrey,Tim,Membrey,STK,28,166,29,26-May-94,188cm,92kg,FWD,NA,FWD
toby bedford,Toby,Bedford,GWS,14,44,23,27-May-00,179cm,75kg,FWD,NA,FWD
toby greene,Toby,Greene,GWS,4,221,30,25-Sep-93,182cm,85kg,FWD,NA,FWD
toby mcmullin,Toby,McMullin,GWS,31,4,19,6-Aug-04,183cm,83kg,FWD,NA,FWD
todd marshall,Todd,Marshall,POR,4,103,25,8-Oct-98,198cm,94kg,FWD,NA,FWD
tom emmett,Tom,Emmett,FRE,18,8,22,30-Nov-01,186cm,89kg,FWD,NA,FWD
tom fullarton,Tom,Fullarton,MEL,33,19,25,23-Feb-99,200cm,97kg,FWD,NA,FWD
tom hawkins,Tom,Hawkins,GEE,26,352,35,21-Jul-88,197cm,105kg,FWD,NA,FWD
tom lynch,Tom,Lynch,RIC,19,219,31,31-Oct-92,199cm,100kg,FWD,NA,FWD
tom papley,Tom,Papley,SYD,11,170,27,13-Jul-96,177cm,77kg,FWD,NA,FWD
tyler brockman,Tyler,Brockman,WCE,10,31,21,22-Nov-02,180cm,80kg,FWD,NA,FWD
tyler sellers,Tyler,Sellers,NOR,36,2,21,9-Aug-02,193cm,90kg,FWD,NA,FWD
tyler sonsie,Tyler,Sonsie,RIC,40,13,21,27-Jan-03,181cm,77kg,FWD,NA,FWD
tyson stengle,Tyson,Stengle,GEE,18,66,25,19-Oct-98,175cm,71kg,FWD,NA,FWD
will hayward,Will,Hayward,SYD,9,143,25,26-Oct-98,186cm,83kg,FWD,NA,FWD
willie rioli,Willie,Rioli,POR,15,76,28,4-Jun-95,175cm,78kg,FWD,NA,FWD
ben miller,Ben,Miller,RIC,46,30,24,31-Aug-99,198cm,97kg,FWD,Ruck,FWD RCK
darcy fort,Darcy,Fort,BRI,32,35,30,6-Aug-93,204cm,98kg,FWD,Ruck,FWD RCK
ethan read,Ethan,Read,GCS,20,3,18,7-Jul-05,202cm,92kg,FWD,Ruck,FWD RCK
harry barnett,Harry,Barnett,WCE,30,2,20,22-Jan-04,203cm,98kg,FWD,Ruck,FWD RCK
hayden mclean,Hayden,McLean,SYD,2,59,25,20-Jan-99,197cm,99kg,FWD,Ruck,FWD RCK
luke jackson,Luke,Jackson,FRE,9,81,22,29-Sep-01,199cm,102kg,FWD,Ruck,FWD RCK
mason cox,Mason,Cox,COL,46,120,33,14-Mar-91,211cm,110kg,FWD,Ruck,FWD RCK
nathan kreuger,Nathan,Kreuger,COL,15,9,24,25-Jun-99,196cm,98kg,FWD,Ruck,FWD RCK
sam draper,Sam,Draper,ESS,2,63,25,28-Sep-98,205cm,105kg,FWD,Ruck,FWD RCK
samson ryan,Samson,Ryan,RIC,32,16,23,9-Dec-00,206cm,103kg,FWD,Ruck,FWD RCK
adam cerra,Adam,Cerra,CAR,5,120,24,7-Oct-99,188cm,87kg,MID,NA,MID
adam treloar,Adam,Treloar,WBD,1,237,31,9-Mar-93,185cm,84kg,MID,NA,MID
andrew brayshaw,Andrew,Brayshaw,FRE,8,129,24,8-Nov-99,185cm,88kg,MID,NA,MID
andrew gaff,Andrew,Gaff,WCE,3,276,31,16-Jun-92,184cm,83kg,MID,NA,MID
angus sheldrick,Angus,Sheldrick,SYD,12,9,20,7-Nov-03,178cm,86kg,MID,NA,MID
bailey williams,Bailey,Williams,WBD,34,133,26,10-Oct-97,190cm,88kg,MID,NA,MID
blake acres,Blake,Acres,CAR,13,151,28,7-Oct-95,193cm,92kg,MID,NA,MID
brad crouch,Brad,Crouch,STK,5,161,30,14-Jan-94,186cm,86kg,MID,NA,MID
brandan parfitt,Brandan,Parfitt,GEE,3,126,25,27-Apr-98,180cm,82kg,MID,NA,MID
brandon ellis,Brandon,Ellis,GCS,4,250,30,3-Aug-93,181cm,81kg,MID,NA,MID
brayden fiorini,Brayden,Fiorini,GCS,8,99,26,22-Aug-97,187cm,82kg,MID,NA,MID
caleb poulter,Caleb,Poulter,WBD,25,23,21,12-Oct-02,194cm,84kg,MID,NA,MID
caleb serong,Caleb,Serong,FRE,3,86,23,9-Feb-01,180cm,87kg,MID,NA,MID
callan ward,Callan,Ward,GWS,8,298,34,10-Apr-90,187cm,83kg,MID,NA,MID
callum ah chee,Callum,Ah Chee,BRI,4,124,26,9-Oct-97,183cm,80kg,MID,NA,MID
callum mills,Callum,Mills,SYD,14,155,27,2-Apr-97,188cm,86kg,MID,NA,MID
cameron guthrie,Cameron,Guthrie,GEE,29,236,31,19-Aug-92,187cm,87kg,MID,NA,MID
campbell chesser,Campbell,Chesser,WCE,18,20,20,27-Apr-03,186cm,85kg,MID,NA,MID
chad warner,Chad,Warner,SYD,1,66,22,19-May-01,185cm,82kg,MID,NA,MID
christian petracca,Christian,Petracca,MEL,5,183,28,4-Jan-96,187cm,94kg,MID,NA,MID
clayton oliver,Clayton,Oliver,MEL,13,169,26,22-Jul-97,189cm,88kg,MID,NA,MID
connor rozee,Connor,Rozee,POR,1,112,24,22-Jan-00,185cm,79kg,MID,NA,MID
conor nash,Conor,Nash,HAW,11,79,25,28-Jul-98,198cm,94kg,MID,NA,MID
cooper hamilton,Cooper,Hamilton,GWS,43,8,20,24-Sep-03,185cm,88kg,MID,NA,MID
cooper stephens,Cooper,Stephens,HAW,21,7,23,17-Jan-01,188cm,86kg,MID,NA,MID
darcy parish,Darcy,Parish,ESS,3,155,26,25-Jul-97,180cm,81kg,MID,NA,MID
darcy tucker,Darcy,Tucker,NOR,13,132,27,23-Jan-97,184cm,83kg,MID,NA,MID
dion prestia,Dion,Prestia,RIC,3,214,31,12-Oct-92,175cm,84kg,MID,NA,MID
dominic bedendo,Dominic,Bedendo,WBD,26,2,21,9-Jul-02,191cm,80kg,MID,NA,MID
dominic sheed,Dominic,Sheed,WCE,4,158,29,10-Apr-95,186cm,86kg,MID,NA,MID
dylan shiel,Dylan,Shiel,ESS,9,211,31,9-Mar-93,182cm,84kg,MID,NA,MID
dylan stephens,Dylan,Stephens,NOR,15,49,23,8-Jan-01,184cm,80kg,MID,NA,MID
ed langdon,Ed,Langdon,MEL,15,164,28,1-Feb-96,182cm,78kg,MID,NA,MID
errol gulden,Errol,Gulden,SYD,21,73,21,18-Jul-02,175cm,77kg,MID,NA,MID
ethan stanley,Ethan,Stanley,FRE,46,2,20,13-Nov-03,188cm,81kg,MID,NA,MID
finn callaghan,Finn,Callaghan,GWS,17,32,20,26-Apr-03,192cm,86kg,MID,NA,MID
george hewett,George,Hewett,CAR,29,163,28,29-Dec-95,187cm,87kg,MID,NA,MID
george wardlaw,George,Wardlaw,NOR,6,13,19,11-Jun-04,182cm,79kg,MID,NA,MID
harry morrison,Harry,Morrison,HAW,1,93,25,12-Nov-98,184cm,79kg,MID,NA,MID
harry rowston,Harry,Rowston,GWS,24,7,19,12-Aug-04,182cm,82kg,MID,NA,MID
harry schoenberg,Harry,Schoenberg,ADE,26,57,23,21-Feb-01,183cm,86kg,MID,NA,MID
harry sharp,Harry,Sharp,BRI,22,10,21,17-Dec-02,182cm,76kg,MID,NA,MID
henry hustwaite,Henry,Hustwaite,HAW,44,6,19,20-Jul-04,195cm,84kg,MID,NA,MID
hugh greenwood,Hugh,Greenwood,NOR,1,120,32,6-Mar-92,190cm,92kg,MID,NA,MID
hugh mccluggage,Hugh,McCluggage,BRI,6,162,26,3-Mar-98,185cm,84kg,MID,NA,MID
hunter clark,Hunter,Clark,STK,11,87,25,26-Mar-99,186cm,83kg,MID,NA,MID
jack bytel,Jack,Bytel,COL,27,22,24,14-Mar-00,189cm,82kg,MID,NA,MID
jack carroll,Jack,Carroll,CAR,16,12,21,20-Dec-02,188cm,83kg,MID,NA,MID
jack ross,Jack,Ross,RIC,5,68,23,3-Sep-00,187cm,87kg,MID,NA,MID
jack steele,Jack,Steele,STK,9,164,28,13-Dec-95,187cm,90kg,MID,NA,MID
jack viney,Jack,Viney,MEL,7,203,30,13-Apr-94,179cm,93kg,MID,NA,MID
jacob hopper,Jacob,Hopper,RIC,22,133,27,6-Feb-97,187cm,86kg,MID,NA,MID
jacob wehr,Jacob,Wehr,GWS,10,21,25,5-Jul-98,185cm,75kg,MID,NA,MID
jaeger o'meara,Jaeger,O'Meara,FRE,2,169,30,23-Feb-94,184cm,84kg,MID,NA,MID
jai newcombe,Jai,Newcombe,HAW,3,57,22,2-Aug-01,187cm,92kg,MID,NA,MID
jake rogers,Jake,Rogers,GCS,29,1,19,2-Mar-05,172cm,68kg,MID,NA,MID
jake soligo,Jake,Soligo,ADE,14,43,21,25-Jan-03,180cm,84kg,MID,NA,MID
james rowbottom,James,Rowbottom,SYD,8,99,23,19-Sep-00,186cm,82kg,MID,NA,MID
james worpel,James,Worpel,HAW,5,108,25,24-Jan-99,186cm,86kg,MID,NA,MID
jarrod berry,Jarrod,Berry,BRI,7,140,26,5-Feb-98,192cm,89kg,MID,NA,MID
jarryd lyons,Jarryd,Lyons,BRI,17,194,31,22-Jul-92,184cm,86kg,MID,NA,MID
jason horne-francis,Jason,Horne-Francis,POR,18,45,20,21-Jun-03,185cm,85kg,MID,NA,MID
jaspa fletcher,Jaspa,Fletcher,BRI,28,21,20,24-Feb-04,183cm,76kg,MID,NA,MID
jeremy sharp,Jeremy,Sharp,FRE,14,29,22,13-Aug-01,189cm,81kg,MID,NA,MID
jhye clark,Jhye,Clark,GEE,13,7,19,23-Jul-04,181cm,77kg,MID,NA,MID
jordan dawson,Jordan,Dawson,ADE,12,115,27,9-Apr-97,191cm,91kg,MID,NA,MID
jordan de goey,Jordan,De Goey,COL,2,165,28,15-Mar-96,188cm,93kg,MID,NA,MID
josh daicos,Josh,Daicos,COL,7,110,25,26-Nov-98,178cm,77kg,MID,NA,MID
josh dunkley,Josh,Dunkley,BRI,5,147,27,9-Jan-97,191cm,87kg,MID,NA,MID
josh fahey,Josh,Fahey,GWS,34,7,20,11-Nov-03,187cm,82kg,MID,NA,MID
josh sinn,Josh,Sinn,POR,8,4,21,7-Jan-03,187cm,83kg,MID,NA,MID
josh ward,Josh,Ward,HAW,25,35,20,15-Aug-03,183cm,80kg,MID,NA,MID
joshua kelly,Joshua,Kelly,GWS,22,205,29,12-Feb-95,184cm,82kg,MID,NA,MID
kamdyn mcintosh,Kamdyn,McIntosh,RIC,33,175,30,3-Apr-94,191cm,92kg,MID,NA,MID
kane mcauliffe,Kane,McAuliffe,RIC,28,2,19,1-Mar-05,187cm,86kg,MID,NA,MID
lachie neale,Lachie,Neale,BRI,9,252,30,24-May-93,178cm,84kg,MID,NA,MID
lachlan hunter,Lachlan,Hunter,MEL,12,197,29,13-Dec-94,183cm,82kg,MID,NA,MID
lachlan sholl,Lachlan,Sholl,ADE,38,57,24,7-Mar-00,186cm,87kg,MID,NA,MID
liam henry,Liam,Henry,STK,23,45,22,28-Aug-01,180cm,76kg,MID,NA,MID
liam shiels,Liam,Shiels,NOR,14,273,32,29-Apr-91,184cm,82kg,MID,NA,MID
luke davies-uniacke,Luke,Davies-Uniacke,NOR,9,91,24,8-Jun-99,188cm,89kg,MID,NA,MID
luke parker,Luke,Parker,SYD,26,283,31,25-Oct-92,183cm,88kg,MID,NA,MID
marcus bontempelli,Marcus,Bontempelli,WBD,4,222,28,24-Nov-95,194cm,96kg,MID,NA,MID
mason wood,Mason,Wood,STK,32,119,30,13-Sep-93,192cm,86kg,MID,NA,MID
matt crouch,Matt,Crouch,ADE,5,148,29,21-Apr-95,183cm,85kg,MID,NA,MID
matt johnson,Matt,Johnson,FRE,44,24,21,16-Mar-03,193cm,84kg,MID,NA,MID
matt rowell,Matt,Rowell,GCS,18,68,22,1-Jul-01,180cm,82kg,MID,NA,MID
mitchell knevitt,Mitchell,Knevitt,GEE,10,11,21,8-Jan-03,193cm,85kg,MID,NA,MID
nathan o'driscoll,Nathan,O'Driscoll,FRE,30,22,21,17-May-02,188cm,82kg,MID,NA,MID
noah anderson,Noah,Anderson,GCS,15,87,23,17-Feb-01,192cm,88kg,MID,NA,MID
oliver hollands,Oliver,Hollands,CAR,4,25,20,16-Jan-04,184cm,72kg,MID,NA,MID
oliver wines,Oliver,Wines,POR,16,233,29,7-Oct-94,187cm,98kg,MID,NA,MID
oskar baker,Oskar,Baker,WBD,13,37,25,25-May-98,184cm,87kg,MID,NA,MID
paddy dow,Paddy,Dow,STK,15,73,24,16-Oct-99,184cm,83kg,MID,NA,MID
patrick cripps,Patrick,Cripps,CAR,9,189,29,18-Mar-95,195cm,93kg,MID,NA,MID
patrick dangerfield,Patrick,Dangerfield,GEE,35,324,34,5-Apr-90,189cm,97kg,MID,NA,MID
reuben ginbey,Reuben,Ginbey,WCE,7,23,19,10-Sep-04,191cm,83kg,MID,NA,MID
rory laird,Rory,Laird,ADE,29,230,30,29-Dec-93,177cm,85kg,MID,NA,MID
rory sloane,Rory,Sloane,ADE,9,255,34,17-Mar-90,183cm,87kg,MID,NA,MID
ryan angwin,Ryan,Angwin,GWS,9,16,21,12-Dec-02,185cm,81kg,MID,NA,MID
ryan byrnes,Ryan,Byrnes,STK,13,54,22,3-May-01,181cm,84kg,MID,NA,MID
sam berry,Sam,Berry,ADE,3,44,22,12-Feb-02,182cm,88kg,MID,NA,MID
sam docherty,Sam,Docherty,CAR,15,168,30,17-Oct-93,187cm,87kg,MID,NA,MID
sam durham,Sam,Durham,ESS,22,55,22,9-Jul-01,185cm,84kg,MID,NA,MID
sam walsh,Sam,Walsh,CAR,18,101,23,2-Jul-00,184cm,84kg,MID,NA,MID
scott pendlebury,Scott,Pendlebury,COL,10,390,36,7-Jan-88,191cm,86kg,MID,NA,MID
sebastian ross,Sebastian,Ross,STK,6,204,30,7-May-93,187cm,90kg,MID,NA,MID
steele sidebottom,Steele,Sidebottom,COL,22,315,33,2-Jan-91,184cm,86kg,MID,NA,MID
stephen coniglio,Stephen,Coniglio,GWS,3,207,30,15-Dec-93,182cm,83kg,MID,NA,MID
tanner bruhn,Tanner,Bruhn,GEE,4,54,21,27-May-02,184cm,83kg,MID,NA,MID
tarryn thomas,Tarryn,Thomas,NOR,26,69,24,25-Mar-00,190cm,83kg,MID,NA,MID
thomas liberatore,Thomas,Liberatore,WBD,21,221,31,16-May-92,184cm,85kg,MID,NA,MID
thomson dow,Thomson,Dow,RIC,27,24,22,16-Oct-01,184cm,79kg,MID,NA,MID
tim kelly,Tim,Kelly,WCE,11,130,29,26-Jul-94,184cm,83kg,MID,NA,MID
tim taranto,Tim,Taranto,RIC,14,142,26,28-Jan-98,188cm,87kg,MID,NA,MID
tom green,Tom,Green,GWS,12,74,23,23-Jan-01,192cm,92kg,MID,NA,MID
tom mitchell,Tom,Mitchell,COL,6,203,30,31-May-93,182cm,88kg,MID,NA,MID
touk miller,Touk,Miller,GCS,11,179,28,22-Feb-96,178cm,84kg,MID,NA,MID
travis boak,Travis,Boak,POR,10,352,35,1-Aug-88,183cm,86kg,MID,NA,MID
will ashcroft,Will,Ashcroft,BRI,8,18,19,6-May-04,182cm,78kg,MID,NA,MID
will brodie,Will,Brodie,FRE,17,54,25,23-Aug-98,190cm,89kg,MID,NA,MID
will day,Will,Day,HAW,12,54,22,5-Jun-01,191cm,83kg,MID,NA,MID
will phillips,Will,Phillips,NOR,29,33,21,22-May-02,181cm,81kg,MID,NA,MID
will setterfield,Will,Setterfield,ESS,12,70,26,5-Feb-98,192cm,87kg,MID,NA,MID
willem drew,Willem,Drew,POR,28,87,25,1-Oct-98,188cm,86kg,MID,NA,MID
xavier duursma,Xavier,Duursma,ESS,28,80,23,7-Jul-00,186cm,82kg,MID,NA,MID
zach tuohy,Zach,Tuohy,GEE,2,274,34,10-Dec-89,187cm,94kg,MID,NA,MID
zachary merrett,Zachary,Merrett,ESS,7,213,28,3-Oct-95,179cm,83kg,MID,NA,MID
zak butters,Zak,Butters,POR,9,99,23,8-Sep-00,181cm,77kg,MID,NA,MID
zak jones,Zak,Jones,STK,3,140,29,15-Mar-95,182cm,84kg,MID,NA,MID
zane trew,Zane,Trew,WCE,26,6,21,26-Apr-02,187cm,82kg,MID,NA,MID
alex davies,Alex,Davies,GCS,5,25,22,18-Mar-02,193cm,89kg,MID,FWD,MID FWD
anthony scott,Anthony,Scott,WBD,28,57,29,28-Feb-95,181cm,79kg,MID,FWD,MID FWD
archie perkins,Archie,Perkins,ESS,16,66,22,26-Mar-02,188cm,85kg,MID,FWD,MID FWD
bailey smith,Bailey,Smith,WBD,6,103,23,7-Dec-00,185cm,86kg,MID,FWD,MID FWD
ben hobbs,Ben,Hobbs,ESS,8,41,20,16-Sep-03,183cm,80kg,MID,FWD,MID FWD
bradley hill,Bradley,Hill,STK,8,239,30,9-Jul-93,182cm,81kg,MID,FWD,MID FWD
brayden cook,Brayden,Cook,ADE,15,15,21,18-Jul-02,191cm,85kg,MID,FWD,MID FWD
caleb daniel,Caleb,Daniel,WBD,35,180,27,7-Jul-96,171cm,72kg,MID,FWD,MID FWD
caleb windsor,Caleb,Windsor,MEL,6,7,18,9-Jun-05,185cm,76kg,MID,FWD,MID FWD
cameron mackenzie,Cameron,Mackenzie,HAW,28,20,20,21-Jan-04,188cm,82kg,MID,FWD,MID FWD
cameron rayner,Cameron,Rayner,BRI,16,120,24,21-Oct-99,186cm,93kg,MID,FWD,MID FWD
charlie lazzaro,Charlie,Lazzaro,NOR,35,35,22,25-Mar-02,180cm,80kg,MID,FWD,MID FWD
curtis taylor,Curtis,Taylor,NOR,5,68,24,6-Apr-00,188cm,82kg,MID,FWD,MID FWD
darcy wilson,Darcy,Wilson,STK,22,6,18,18-Aug-05,185cm,74kg,MID,FWD,MID FWD
david swallow,David,Swallow,GCS,24,226,31,19-Nov-92,186cm,87kg,MID,FWD,MID FWD
dayne zorko,Dayne,Zorko,BRI,15,257,35,9-Feb-89,175cm,77kg,MID,FWD,MID FWD
deven robertson,Deven,Robertson,BRI,2,43,22,30-Jun-01,185cm,84kg,MID,FWD,MID FWD
elijah hewett,Elijah,Hewett,WCE,8,14,19,27-May-04,186cm,86kg,MID,FWD,MID FWD
elijah hollands,Elijah,Hollands,CAR,20,18,22,25-Apr-02,189cm,86kg,MID,FWD,MID FWD
elijah tsatas,Elijah,Tsatas,ESS,5,7,19,18-Oct-04,187cm,80kg,MID,FWD,MID FWD
finlay macrae,Finlay,Macrae,COL,18,15,22,13-Mar-02,188cm,80kg,MID,FWD,MID FWD
finn maginness,Finn,Maginness,HAW,32,37,23,23-Feb-01,189cm,88kg,MID,FWD,MID FWD
harley reid,Harley,Reid,WCE,9,6,19,17-Apr-05,187cm,87kg,MID,FWD,MID FWD
harvey gallagher,Harvey,Gallagher,WBD,12,6,20,26-Sep-03,181cm,78kg,MID,FWD,MID FWD
harvey thomas,Harvey,Thomas,GWS,28,7,18,8-Aug-05,176cm,69kg,MID,FWD,MID FWD
hewago oea,Hewago,Oea,GCS,47,13,22,13-Nov-01,177cm,74kg,MID,FWD,MID FWD
hugo garcia,Hugo,Garcia,STK,34,2,18,22-May-05,185cm,78kg,MID,FWD,MID FWD
isaac heeney,Isaac,Heeney,SYD,5,183,27,5-May-96,185cm,88kg,MID,FWD,MID FWD
jack billings,Jack,Billings,MEL,14,162,28,18-Aug-95,185cm,81kg,MID,FWD,MID FWD
jack mahony,Jack,Mahony,GCS,42,44,22,12-Nov-01,177cm,73kg,MID,FWD,MID FWD
jackson macrae,Jackson,Macrae,WBD,11,234,29,3-Aug-94,192cm,89kg,MID,FWD,MID FWD
jackson mead,Jackson,Mead,POR,44,24,22,30-Sep-01,184cm,85kg,MID,FWD,MID FWD
jai culley,Jai,Culley,WCE,49,9,21,24-Feb-03,194cm,91kg,MID,FWD,MID FWD
james harmes,James,Harmes,WBD,22,154,28,5-Oct-95,186cm,86kg,MID,FWD,MID FWD
james jordon,James,Jordon,SYD,17,71,23,20-Dec-00,187cm,82kg,MID,FWD,MID FWD
james peatling,James,Peatling,GWS,20,31,23,21-Aug-00,186cm,79kg,MID,FWD,MID FWD
justin mcinerney,Justin,McInerney,SYD,27,78,23,18-Aug-00,189cm,83kg,MID,FWD,MID FWD
jy simpkin,Jy,Simpkin,NOR,12,139,26,5-Mar-98,183cm,77kg,MID,FWD,MID FWD
jye caldwell,Jye,Caldwell,ESS,6,62,23,28-Sep-00,183cm,83kg,MID,FWD,MID FWD
loch rawlinson,Loch,Rawlinson,WCE,36,1,18,1-Jun-05,178cm,72kg,MID,FWD,MID FWD
luke edwards,Luke,Edwards,WCE,16,30,22,12-Jan-02,189cm,84kg,MID,FWD,MID FWD
marlion pickett,Marlion,Pickett,RIC,50,85,32,6-Jan-92,184cm,83kg,MID,FWD,MID FWD
matt cottrell,Matt,Cottrell,CAR,46,60,24,29-Feb-00,184cm,83kg,MID,FWD,MID FWD
matthew kennedy,Matthew,Kennedy,CAR,7,100,27,6-Apr-97,188cm,91kg,MID,FWD,MID FWD
nathan fyfe,Nathan,Fyfe,FRE,7,224,32,18-Sep-91,191cm,94kg,MID,FWD,MID FWD
neil erasmus,Neil,Erasmus,FRE,28,22,20,2-Dec-03,190cm,82kg,MID,FWD,MID FWD
nick watson,Nick,Watson,HAW,34,3,19,24-Feb-05,170cm,68kg,MID,FWD,MID FWD
ollie dempsey,Ollie,Dempsey,GEE,28,13,21,7-Jan-03,187cm,74kg,MID,FWD,MID FWD
patrick lipinski,Patrick,Lipinski,COL,1,102,25,17-Jul-98,190cm,86kg,MID,FWD,MID FWD
ryley sanders,Ryley,Sanders,WBD,9,6,19,21-Jan-05,186cm,86kg,MID,FWD,MID FWD
sam flanders,Sam,Flanders,GCS,3,50,22,24-Jul-01,183cm,81kg,MID,FWD,MID FWD
shai bolton,Shai,Bolton,RIC,29,120,25,8-Dec-98,176cm,77kg,MID,FWD,MID FWD
shaun mannagh,Shaun,Mannagh,GEE,7,2,26,6-Aug-97,178cm,80kg,MID,FWD,MID FWD
taylor adams,Taylor,Adams,SYD,3,208,30,20-Sep-93,181cm,85kg,MID,FWD,MID FWD
tom powell,Tom,Powell,NOR,24,51,22,2-Mar-02,184cm,79kg,MID,FWD,MID FWD
tom sparrow,Tom,Sparrow,MEL,32,81,23,31-May-00,183cm,85kg,MID,FWD,MID FWD
xavier o'halloran,Xavier,O'Halloran,GWS,33,55,23,11-Jul-00,187cm,89kg,MID,FWD,MID FWD
zac bailey,Zac,Bailey,BRI,33,123,24,23-Sep-99,182cm,84kg,MID,FWD,MID FWD
zane duursma,Zane,Duursma,NOR,7,6,18,28-Aug-05,190cm,80kg,MID,FWD,MID FWD
mark blicavs,Mark,Blicavs,GEE,46,252,33,28-Mar-91,198cm,101kg,MID,Ruck,MID RCK
aiden begg,Aiden,Begg,COL,39,3,21,8-Oct-02,197cm,99kg,Ruck,NA,RCK
bailey j. williams,Bailey J.,Williams,WCE,32,55,24,17-Apr-00,201cm,101kg,Ruck,NA,RCK
braydon preuss,Braydon,Preuss,GWS,11,28,28,16-Jun-95,207cm,118kg,Ruck,NA,RCK
brodie grundy,Brodie,Grundy,SYD,4,200,30,15-Apr-94,202cm,105kg,Ruck,NA,RCK
dante visentini,Dante,Visentini,POR,38,3,21,13-Feb-03,202cm,98kg,Ruck,NA,RCK
darcy cameron,Darcy,Cameron,COL,14,79,28,18-Jul-95,204cm,103kg,Ruck,NA,RCK
ivan soldo,Ivan,Soldo,POR,13,63,28,14-Apr-96,204cm,110kg,Ruck,NA,RCK
jarrod witts,Jarrod,Witts,GCS,28,170,31,13-Sep-92,209cm,110kg,Ruck,NA,RCK
jordon sweet,Jordon,Sweet,POR,24,12,26,2-Feb-98,206cm,106kg,Ruck,NA,RCK
kieran strachan,Kieran,Strachan,ADE,45,5,28,5-Oct-95,204cm,102kg,Ruck,NA,RCK
kieren briggs,Kieren,Briggs,GWS,32,33,24,6-Oct-99,201cm,108kg,Ruck,NA,RCK
lachlan mcandrew,Lachlan,McAndrew,SYD,46,2,23,26-May-00,209cm,101kg,Ruck,NA,RCK
lloyd meek,Lloyd,Meek,HAW,17,35,26,22-Apr-98,203cm,109kg,Ruck,NA,RCK
marc pittonet,Marc,Pittonet,CAR,27,61,27,3-Jun-96,202cm,107kg,Ruck,NA,RCK
matthew flynn,Matthew,Flynn,WCE,25,33,26,13-Sep-97,202cm,107kg,Ruck,NA,RCK
max gawn,Max,Gawn,MEL,11,210,32,30-Dec-91,209cm,110kg,Ruck,NA,RCK
ned moyle,Ned,Moyle,GCS,49,3,22,15-Feb-02,206cm,104kg,Ruck,NA,RCK
ned reeves,Ned,Reeves,HAW,7,40,25,31-Oct-98,210cm,103kg,Ruck,NA,RCK
nick bryan,Nick,Bryan,ESS,24,14,22,22-Oct-01,203cm,101kg,Ruck,NA,RCK
oscar mcinerney,Oscar,McInerney,BRI,46,132,29,10-Jul-94,204cm,110kg,Ruck,NA,RCK
peter ladhams,Peter,Ladhams,SYD,19,52,26,14-Jan-98,204cm,103kg,Ruck,NA,RCK
reilly o'brien,Reilly,O'Brien,ADE,43,106,28,20-Aug-95,202cm,105kg,Ruck,NA,RCK
rhys stanley,Rhys,Stanley,GEE,1,200,33,1-Dec-90,200cm,102kg,Ruck,NA,RCK
rowan marshall,Rowan,Marshall,STK,19,116,28,24-Nov-95,201cm,105kg,Ruck,NA,RCK
sam naismith,Sam,Naismith,RIC,24,32,31,16-Jul-92,205cm,108kg,Ruck,NA,RCK
sean darcy,Sean,Darcy,FRE,4,99,25,12-Jun-98,203cm,111kg,Ruck,NA,RCK
timothy english,Timothy,English,WBD,44,114,26,10-Aug-97,208cm,107kg,Ruck,NA,RCK
toby conway,Toby,Conway,GEE,6,3,21,24-Apr-03,206cm,101kg,Ruck,NA,RCK
toby nankervis,Toby,Nankervis,RIC,25,142,29,12-Aug-94,199cm,102kg,Ruck,NA,RCK
todd goldstein,Todd,Goldstein,ESS,17,322,35,1-Jul-88,201cm,101kg,Ruck,NA,RCK
tom campbell,Tom,Campbell,STK,38,56,32,2-Nov-91,201cm,108kg,Ruck,NA,RCK
tom de koning,Tom,De Koning,CAR,12,66,24,16-Jul-99,201cm,102kg,Ruck,NA,RCK
tristan xerri,Tristan,Xerri,NOR,38,39,25,15-Mar-99,201cm,99kg,Ruck,NA,RCK